what,kind,bundleId,bundleVersion,description,time
java.specification.version,sysinfo,,,"1.6",1316564004562
java.vendor,sysinfo,,,"Sun Microsystems Inc.",1316564004562
java.version,sysinfo,,,"1.6.0",1316564004562
java.vm.info,sysinfo,,,"mixed mode",1316564004562
java.vm.name,sysinfo,,,"Java HotSpot(TM) Client VM",1316564004562
java.vm.specification.name,sysinfo,,,"Java Virtual Machine Specification",1316564004562
java.vm.specification.vendor,sysinfo,,,"Sun Microsystems Inc.",1316564004562
java.vm.specification.version,sysinfo,,,"1.0",1316564004562
java.vm.vendor,sysinfo,,,"Sun Microsystems Inc.",1316564004562
java.vm.version,sysinfo,,,"1.6.0-b105",1316564004562
started,bundle,org.eclipse.ui.forms,3.4.0.v20090526,"org.eclipse.ui.forms",1316564004687
started,bundle,org.eclipse.team.cvs.ui,3.3.200.I20090521-1750,"org.eclipse.team.cvs.ui",1316564004702
started,bundle,org.eclipse.mylyn.tasks.ui,3.2.0.v20090617-0100-e3x,"org.eclipse.mylyn.tasks.ui",1316564004874
started,bundle,org.eclipse.mylyn.team.ui,3.2.0.v20090617-0100-e3x,"org.eclipse.mylyn.team.ui",1316564004874
started,bundle,org.eclipse.update.scheduler,3.2.200.v20081127,"org.eclipse.update.scheduler",1316564004874
started,bundle,org.eclipse.update.core,3.2.300.v20090525,"org.eclipse.update.core",1316564004905
started,bundle,org.eclipse.wst.ws.service.policy.ui,1.0.102.v200903070248,"org.eclipse.wst.ws.service.policy.ui",1316564005202
started,bundle,org.eclipse.mylyn.monitor.ui,3.2.0.v20090617-0100-e3x,"org.eclipse.mylyn.monitor.ui",1316564005296
activated,view,org.eclipse.jdt.ui,3.5.0.v20090604,"org.eclipse.jdt.ui.PackageExplorer",1316564014264
started,bundle,org.eclipse.wst.ws.service.policy,1.0.103.v200905151848,"org.eclipse.wst.ws.service.policy",1316564014530
started,bundle,org.eclipse.wst.command.env,1.0.408.v200903110045,"org.eclipse.wst.command.env",1316564014561
started,bundle,org.eclipse.wst.ws,1.1.103.v200903111822,"org.eclipse.wst.ws",1316564014561
started,bundle,org.eclipse.compare,3.5.0.I20090514-0808,"org.eclipse.compare",1316564014827
executed,command,org.eclipse.ui.ide,3.5.0.I20090525-2000,"org.eclipse.ui.project.closeProject",1316564016373
deactivated,workbench,org.eclipse.ui.workbench,3.5.0.I20090603-2000,"",1316564016764
