what,kind,bundleId,bundleVersion,description,time
executed,command,org.eclipse.ui,3.5.0.I20090604-2000,"org.eclipse.ui.edit.text.contentAssist.proposals",1334016689285
executed,command,org.eclipse.ui,3.5.0.I20090604-2000,"org.eclipse.ui.edit.text.contentAssist.proposals",1334016712664
deactivated,workbench,org.eclipse.ui.workbench,3.5.0.I20090603-2000,"",1334016713555
activated,workbench,org.eclipse.ui.workbench,3.5.0.I20090603-2000,"",1334016724573
deactivated,workbench,org.eclipse.ui.workbench,3.5.0.I20090603-2000,"",1334016728652
activated,workbench,org.eclipse.ui.workbench,3.5.0.I20090603-2000,"",1334016730980
executed,command,org.eclipse.ui,3.5.0.I20090604-2000,"org.eclipse.ui.edit.cut",1334016734231
executed,command,org.eclipse.ui,3.5.0.I20090604-2000,"org.eclipse.ui.edit.paste",1334016736419
executed,command,org.eclipse.ui,3.5.0.I20090604-2000,"org.eclipse.ui.edit.copy",1334016759563
executed,command,org.eclipse.ui,3.5.0.I20090604-2000,"org.eclipse.ui.edit.paste",1334016760345
executed,command,org.eclipse.ui,3.5.0.I20090604-2000,"org.eclipse.ui.edit.undo",1334016761954
executed,command,org.eclipse.ui,3.5.0.I20090604-2000,"org.eclipse.ui.edit.delete",1334016770409
executed,command,org.eclipse.ui,3.5.0.I20090604-2000,"org.eclipse.ui.edit.paste",1334016776285
executed,command,org.eclipse.ui,3.5.0.I20090604-2000,"org.eclipse.ui.edit.paste",1334016782271
executed,command,org.eclipse.ui.workbench.texteditor,3.5.0.v20090603,"org.eclipse.ui.edit.text.select.lineStart",1334016788959
executed,command,org.eclipse.ui,3.5.0.I20090604-2000,"org.eclipse.ui.file.save",1334016803102
deactivated,workbench,org.eclipse.ui.workbench,3.5.0.I20090603-2000,"",1334016804243
activated,workbench,org.eclipse.ui.workbench,3.5.0.I20090603-2000,"",1334016810948
executed,command,org.eclipse.ui,3.5.0.I20090604-2000,"org.eclipse.ui.file.save",1334016827466
deactivated,workbench,org.eclipse.ui.workbench,3.5.0.I20090603-2000,"",1334016829263
activated,workbench,org.eclipse.ui.workbench,3.5.0.I20090603-2000,"",1334016844203
executed,command,org.eclipse.ui,3.5.0.I20090604-2000,"org.eclipse.ui.edit.cut",1334016912542
executed,command,org.eclipse.ui,3.5.0.I20090604-2000,"org.eclipse.ui.edit.paste",1334016913714
executed,command,org.eclipse.ui,3.5.0.I20090604-2000,"org.eclipse.ui.edit.cut",1334016928809
executed,command,org.eclipse.ui,3.5.0.I20090604-2000,"org.eclipse.ui.edit.paste",1334016930137
