what,kind,bundleId,bundleVersion,description,time
started,bundle,org.eclipse.cdt.debug.core,6.0.0.200906161748,"org.eclipse.cdt.debug.core",1315872138788
started,bundle,org.eclipse.cdt.debug.ui,6.0.0.200906161748,"org.eclipse.cdt.debug.ui",1315872138788
started,bundle,org.eclipse.wst.common.emf,1.1.300.v200905060430,"org.eclipse.wst.common.emf",1315872138804
started,bundle,org.eclipse.jst.j2ee.core,1.1.300.v200905060430,"org.eclipse.jst.j2ee.core",1315872138804
started,bundle,org.eclipse.jem,2.0.300.v200901272200,"org.eclipse.jem",1315872138820
started,bundle,org.eclipse.emf.ecore.xmi,2.5.0.v200906151043,"org.eclipse.emf.ecore.xmi",1315872138820
started,bundle,org.eclipse.jst.jee,1.0.200.v200905290632,"org.eclipse.jst.jee",1315872139226
started,bundle,org.eclipse.jpt.core,2.2.0.v200906070220,"org.eclipse.jpt.core",1315872139242
started,bundle,org.eclipse.jpt.eclipselink.core,1.2.0.v200905310000,"org.eclipse.jpt.eclipselink.core",1315872139242
started,bundle,org.eclipse.wst.sse.core,1.1.400.v200905141750,"org.eclipse.wst.sse.core",1315872139257
started,bundle,org.eclipse.wst.common.frameworks.ui,1.1.300.v200904160730,"org.eclipse.wst.common.frameworks.ui",1315872139273
started,bundle,org.eclipse.wst.xml.core,1.1.400.v200904300540,"org.eclipse.wst.xml.core",1315872139273
started,bundle,org.eclipse.wst.common.emfworkbench.integration,1.1.300.v200811200330,"org.eclipse.wst.common.emfworkbench.integration",1315872139304
started,bundle,org.eclipse.wst.common.modulecore,1.1.300.v200904132230,"org.eclipse.wst.common.modulecore",1315872139320
started,bundle,org.eclipse.wst.validation,1.2.102.v200905201610,"org.eclipse.wst.validation",1315872139320
started,bundle,org.eclipse.jst.j2ee,1.1.300.v200905290632,"org.eclipse.jst.j2ee",1315872139335
started,bundle,org.eclipse.jdt.debug,3.5.0.v20090526,"org.eclipse.jdt.debug",1315872139382
started,bundle,org.eclipse.jdt.debug.ui,3.4.0.v20090527,"org.eclipse.jdt.debug.ui",1315872139476
deactivated,workbench,org.eclipse.ui.workbench,3.5.0.I20090603-2000,"",1315872139632
activated,workbench,org.eclipse.ui.workbench,3.5.0.I20090603-2000,"",1315872140507
started,bundle,org.eclipse.cdt.debug.mi.ui,6.0.0.200906161748,"org.eclipse.cdt.debug.mi.ui",1315872140976
started,bundle,org.eclipse.cdt.debug.mi.core,6.0.0.200906161748,"org.eclipse.cdt.debug.mi.core",1315872140976
opened,editor,org.eclipse.jdt.ui,3.5.0.v20090604,"org.eclipse.jdt.ui.CompilationUnitEditor",1315872181538
activated,editor,org.eclipse.jdt.ui,3.5.0.v20090604,"org.eclipse.jdt.ui.CompilationUnitEditor",1315872181569
closed,editor,org.eclipse.jdt.ui,3.5.0.v20090604,"org.eclipse.jdt.ui.CompilationUnitEditor",1315872181569
