what,kind,bundleId,bundleVersion,description,time
executed,command,org.eclipse.ui,3.5.0.I20090604-2000,"org.eclipse.ui.edit.delete",1314752928436
executed,command,org.eclipse.ui,3.5.0.I20090604-2000,"org.eclipse.ui.edit.delete",1314752928561
executed,command,org.eclipse.ui,3.5.0.I20090604-2000,"org.eclipse.ui.edit.delete",1314752928670
executed,command,org.eclipse.jdt.ui,3.5.0.v20090604,"org.eclipse.jdt.ui.edit.text.java.format",1314752931811
executed,command,org.eclipse.jdt.ui,3.5.0.v20090604,"org.eclipse.jdt.ui.edit.text.java.format",1314752936983
activated,editor,org.eclipse.jdt.ui,3.5.0.v20090604,"org.eclipse.jdt.ui.CompilationUnitEditor",1314752947389
executed,command,org.eclipse.ui,3.5.0.I20090604-2000,"org.eclipse.ui.edit.copy",1314752950436
activated,editor,org.eclipse.jdt.ui,3.5.0.v20090604,"org.eclipse.jdt.ui.CompilationUnitEditor",1314752950811
executed,command,org.eclipse.ui,3.5.0.I20090604-2000,"org.eclipse.ui.edit.paste",1314752952999
activated,editor,org.eclipse.jdt.ui,3.5.0.v20090604,"org.eclipse.jdt.ui.CompilationUnitEditor",1314752957608
executed,command,org.eclipse.ui,3.5.0.I20090604-2000,"org.eclipse.ui.edit.copy",1314752960030
activated,editor,org.eclipse.jdt.ui,3.5.0.v20090604,"org.eclipse.jdt.ui.CompilationUnitEditor",1314752960420
executed,command,org.eclipse.ui,3.5.0.I20090604-2000,"org.eclipse.ui.edit.paste",1314752960952
deactivated,workbench,org.eclipse.ui.workbench,3.5.0.I20090603-2000,"",1314752982374
error,log,,,"Unhandled event loop exception",1314752982483
activated,workbench,org.eclipse.ui.workbench,3.5.0.I20090603-2000,"",1314752983077
activated,editor,org.eclipse.jdt.ui,3.5.0.v20090604,"org.eclipse.jdt.ui.CompilationUnitEditor",1314753012624
executed,command,org.eclipse.ui,3.5.0.I20090604-2000,"org.eclipse.ui.edit.delete",1314753017749
deactivated,workbench,org.eclipse.ui.workbench,3.5.0.I20090603-2000,"",1314753022405
activated,workbench,org.eclipse.ui.workbench,3.5.0.I20090603-2000,"",1314753023405
executed,command,org.eclipse.ui,3.5.0.I20090604-2000,"org.eclipse.ui.edit.cut",1314753056811
executed,command,org.eclipse.ui,3.5.0.I20090604-2000,"org.eclipse.ui.edit.paste",1314753057389
executed,command,org.eclipse.ui,3.5.0.I20090604-2000,"org.eclipse.ui.edit.copy",1314753076827
executed,command,org.eclipse.ui,3.5.0.I20090604-2000,"org.eclipse.ui.edit.paste",1314753078858
executed,command,org.eclipse.ui,3.5.0.I20090604-2000,"org.eclipse.ui.edit.cut",1314753082749
