what,kind,bundleId,bundleVersion,description,time
executed,command,org.eclipse.ui,3.5.0.I20090604-2000,"org.eclipse.ui.file.save",1315345689474
deactivated,workbench,org.eclipse.ui.workbench,3.5.0.I20090603-2000,"",1315345690021
activated,workbench,org.eclipse.ui.workbench,3.5.0.I20090603-2000,"",1315345690849
executed,command,org.eclipse.ui,3.5.0.I20090604-2000,"org.eclipse.ui.file.save",1315345698005
deactivated,workbench,org.eclipse.ui.workbench,3.5.0.I20090603-2000,"",1315345698802
activated,workbench,org.eclipse.ui.workbench,3.5.0.I20090603-2000,"",1315345699458
executed,command,org.eclipse.ui,3.5.0.I20090604-2000,"org.eclipse.ui.edit.text.contentAssist.proposals",1315345705161
executed,command,org.eclipse.ui,3.5.0.I20090604-2000,"org.eclipse.ui.file.save",1315345707224
deactivated,workbench,org.eclipse.ui.workbench,3.5.0.I20090603-2000,"",1315345708568
activated,workbench,org.eclipse.ui.workbench,3.5.0.I20090603-2000,"",1315345709583
deactivated,workbench,org.eclipse.ui.workbench,3.5.0.I20090603-2000,"",1315345722130
activated,workbench,org.eclipse.ui.workbench,3.5.0.I20090603-2000,"",1315345722833
executed,command,org.eclipse.ui,3.5.0.I20090604-2000,"org.eclipse.ui.file.save",1315345733193
deactivated,workbench,org.eclipse.ui.workbench,3.5.0.I20090603-2000,"",1315345734005
activated,workbench,org.eclipse.ui.workbench,3.5.0.I20090603-2000,"",1315345734708
executed,command,org.eclipse.ui,3.5.0.I20090604-2000,"org.eclipse.ui.file.save",1315345743521
deactivated,workbench,org.eclipse.ui.workbench,3.5.0.I20090603-2000,"",1315345744005
activated,workbench,org.eclipse.ui.workbench,3.5.0.I20090603-2000,"",1315345744896
executed,command,org.eclipse.ui,3.5.0.I20090604-2000,"org.eclipse.ui.file.save",1315345762599
deactivated,workbench,org.eclipse.ui.workbench,3.5.0.I20090603-2000,"",1315345763334
activated,workbench,org.eclipse.ui.workbench,3.5.0.I20090603-2000,"",1315345763959
executed,command,org.eclipse.ui,3.5.0.I20090604-2000,"org.eclipse.ui.file.save",1315345784443
deactivated,workbench,org.eclipse.ui.workbench,3.5.0.I20090603-2000,"",1315345785146
activated,workbench,org.eclipse.ui.workbench,3.5.0.I20090603-2000,"",1315345785803
activated,view,org.eclipse.ui.console,3.4.0.v20090513,"org.eclipse.ui.console.ConsoleView",1315345787146
