what,kind,bundleId,bundleVersion,description,time
arch,sysinfo,,,"x86",1323127106650
ws,sysinfo,,,"win32",1323127106650
locale,sysinfo,,,"pt_BR",1323127106650
processors,sysinfo,,,"2",1323127106650
java.runtime.name,sysinfo,,,"Java(TM) SE Runtime Environment",1323127106650
java.runtime.version,sysinfo,,,"1.6.0-b105",1323127106650
java.specification.name,sysinfo,,,"Java Platform API Specification",1323127106650
java.specification.vendor,sysinfo,,,"Sun Microsystems Inc.",1323127106650
java.specification.version,sysinfo,,,"1.6",1323127106650
java.vendor,sysinfo,,,"Sun Microsystems Inc.",1323127106650
java.version,sysinfo,,,"1.6.0",1323127106650
java.vm.info,sysinfo,,,"mixed mode",1323127106650
java.vm.name,sysinfo,,,"Java HotSpot(TM) Client VM",1323127106650
java.vm.specification.name,sysinfo,,,"Java Virtual Machine Specification",1323127106650
java.vm.specification.vendor,sysinfo,,,"Sun Microsystems Inc.",1323127106650
java.vm.specification.version,sysinfo,,,"1.0",1323127106650
java.vm.vendor,sysinfo,,,"Sun Microsystems Inc.",1323127106650
java.vm.version,sysinfo,,,"1.6.0-b105",1323127106650
started,bundle,org.eclipse.epp.usagedata.ui,1.1.0.R200906100410,"org.eclipse.epp.usagedata.ui",1323127108009
deactivated,workbench,org.eclipse.ui.workbench,3.5.0.I20090603-2000,"",1323127108572
activated,workbench,org.eclipse.ui.workbench,3.5.0.I20090603-2000,"",1323127111728
started,bundle,org.eclipse.debug.ui,3.5.0.v20090603,"org.eclipse.debug.ui",1323127124243
started,bundle,org.eclipse.wst.server.core,1.1.101.v20090515,"org.eclipse.wst.server.core",1323127124743
started,bundle,org.eclipse.wst.server.ui,1.1.102.v20090515,"org.eclipse.wst.server.ui",1323127124759
started,bundle,org.eclipse.jdt.debug,3.5.0.v20090526,"org.eclipse.jdt.debug",1323127124821
