what,kind,bundleId,bundleVersion,description,time
activated,workbench,org.eclipse.ui.workbench,3.5.0.I20090603-2000,"",1334018557044
executed,command,org.eclipse.ui,3.5.0.I20090604-2000,"org.eclipse.ui.file.save",1334018561044
deactivated,workbench,org.eclipse.ui.workbench,3.5.0.I20090603-2000,"",1334018562012
activated,workbench,org.eclipse.ui.workbench,3.5.0.I20090603-2000,"",1334018577090
activated,view,org.eclipse.ui.console,3.4.0.v20090513,"org.eclipse.ui.console.ConsoleView",1334018577090
activated,editor,org.eclipse.jdt.ui,3.5.0.v20090604,"org.eclipse.jdt.ui.CompilationUnitEditor",1334018585558
executed,command,org.eclipse.ui,3.5.0.I20090604-2000,"org.eclipse.ui.file.save",1334018614542
deactivated,workbench,org.eclipse.ui.workbench,3.5.0.I20090603-2000,"",1334018615339
activated,workbench,org.eclipse.ui.workbench,3.5.0.I20090603-2000,"",1334018623151
activated,view,org.eclipse.ui.console,3.4.0.v20090513,"org.eclipse.ui.console.ConsoleView",1334018623932
activated,editor,org.eclipse.jdt.ui,3.5.0.v20090604,"org.eclipse.jdt.ui.CompilationUnitEditor",1334018657306
deactivated,workbench,org.eclipse.ui.workbench,3.5.0.I20090603-2000,"",1334018659681
activated,workbench,org.eclipse.ui.workbench,3.5.0.I20090603-2000,"",1334018670962
activated,view,org.eclipse.ui.console,3.4.0.v20090513,"org.eclipse.ui.console.ConsoleView",1334018676133
activated,editor,org.eclipse.jdt.ui,3.5.0.v20090604,"org.eclipse.jdt.ui.CompilationUnitEditor",1334018677368
deactivated,workbench,org.eclipse.ui.workbench,3.5.0.I20090603-2000,"",1334018693914
activated,workbench,org.eclipse.ui.workbench,3.5.0.I20090603-2000,"",1334018714523
executed,command,org.eclipse.ui,3.5.0.I20090604-2000,"org.eclipse.ui.edit.text.contentAssist.proposals",1334018723554
executed,command,org.eclipse.ui,3.5.0.I20090604-2000,"org.eclipse.ui.file.save",1334018735710
deactivated,workbench,org.eclipse.ui.workbench,3.5.0.I20090603-2000,"",1334018736334
activated,workbench,org.eclipse.ui.workbench,3.5.0.I20090603-2000,"",1334018750647
executed,command,org.eclipse.ui,3.5.0.I20090604-2000,"org.eclipse.ui.edit.text.contentAssist.proposals",1334018757693
executed,command,org.eclipse.ui.workbench.texteditor,3.5.0.v20090603,"org.eclipse.ui.edit.text.goto.lineEnd",1334018762756
executed,command,org.eclipse.ui.workbench.texteditor,3.5.0.v20090603,"org.eclipse.ui.edit.text.select.lineStart",1334018763193
executed,command,org.eclipse.ui.workbench.texteditor,3.5.0.v20090603,"org.eclipse.ui.edit.text.goto.lineEnd",1334018763630
