what,kind,bundleId,bundleVersion,description,time
deactivated,workbench,org.eclipse.ui.workbench,3.5.0.I20090603-2000,"",1316565421417
activated,workbench,org.eclipse.ui.workbench,3.5.0.I20090603-2000,"",1316565421496
activated,editor,org.eclipse.jdt.ui,3.5.0.v20090604,"org.eclipse.jdt.ui.CompilationUnitEditor",1316565421527
executed,command,org.eclipse.ui,3.5.0.I20090604-2000,"org.eclipse.ui.edit.undo",1316565426558
activated,editor,org.eclipse.jdt.ui,3.5.0.v20090604,"org.eclipse.jdt.ui.CompilationUnitEditor",1316565428558
deactivated,workbench,org.eclipse.ui.workbench,3.5.0.I20090603-2000,"",1316565432105
activated,workbench,org.eclipse.ui.workbench,3.5.0.I20090603-2000,"",1316565432199
executed,command,org.eclipse.ui,3.5.0.I20090604-2000,"org.eclipse.ui.file.save",1316565434995
deactivated,workbench,org.eclipse.ui.workbench,3.5.0.I20090603-2000,"",1316565441527
activated,workbench,org.eclipse.ui.workbench,3.5.0.I20090603-2000,"",1316565441605
executed,command,org.eclipse.ui,3.5.0.I20090604-2000,"org.eclipse.ui.file.save",1316565449276
deactivated,workbench,org.eclipse.ui.workbench,3.5.0.I20090603-2000,"",1316565450433
activated,workbench,org.eclipse.ui.workbench,3.5.0.I20090603-2000,"",1316565456558
activated,view,org.eclipse.ui.console,3.4.0.v20090513,"org.eclipse.ui.console.ConsoleView",1316565456573
deactivated,workbench,org.eclipse.ui.workbench,3.5.0.I20090603-2000,"",1316565466948
activated,workbench,org.eclipse.ui.workbench,3.5.0.I20090603-2000,"",1316565479823
activated,editor,org.eclipse.jdt.ui,3.5.0.v20090604,"org.eclipse.jdt.ui.CompilationUnitEditor",1316565479839
deactivated,workbench,org.eclipse.ui.workbench,3.5.0.I20090603-2000,"",1316565487542
activated,workbench,org.eclipse.ui.workbench,3.5.0.I20090603-2000,"",1316565491698
executed,command,org.eclipse.ui,3.5.0.I20090604-2000,"org.eclipse.ui.edit.text.contentAssist.proposals",1316565540260
executed,command,org.eclipse.ui,3.5.0.I20090604-2000,"org.eclipse.ui.edit.text.contentAssist.proposals",1316565541666
executed,command,org.eclipse.ui,3.5.0.I20090604-2000,"org.eclipse.ui.edit.text.contentAssist.proposals",1316565550885
executed,command,org.eclipse.ui,3.5.0.I20090604-2000,"org.eclipse.ui.file.save",1316565561134
deactivated,workbench,org.eclipse.ui.workbench,3.5.0.I20090603-2000,"",1316565568822
activated,workbench,org.eclipse.ui.workbench,3.5.0.I20090603-2000,"",1316565580728
