what,kind,bundleId,bundleVersion,description,time
activated,workbench,org.eclipse.ui.workbench,3.5.0.I20090603-2000,"",1332806253449
started,bundle,org.eclipse.epp.usagedata.ui,1.1.0.R200906100410,"org.eclipse.epp.usagedata.ui",1332806253481
deactivated,workbench,org.eclipse.ui.workbench,3.5.0.I20090603-2000,"",1332806253699
activated,workbench,org.eclipse.ui.workbench,3.5.0.I20090603-2000,"",1332806254871
executed,command,org.eclipse.ui.ide,3.5.0.I20090525-2000,"org.eclipse.ui.project.closeProject",1332806257465
opened,editor,org.eclipse.jdt.ui,3.5.0.v20090604,"org.eclipse.jdt.ui.CompilationUnitEditor",1332806257777
closed,editor,org.eclipse.jdt.ui,3.5.0.v20090604,"org.eclipse.jdt.ui.CompilationUnitEditor",1332806257793
deactivated,workbench,org.eclipse.ui.workbench,3.5.0.I20090603-2000,"",1332806262371
activated,workbench,org.eclipse.ui.workbench,3.5.0.I20090603-2000,"",1332806263199
opened,editor,org.eclipse.jdt.ui,3.5.0.v20090604,"org.eclipse.jdt.ui.CompilationUnitEditor",1332806267652
activated,editor,org.eclipse.jdt.ui,3.5.0.v20090604,"org.eclipse.jdt.ui.CompilationUnitEditor",1332806267714
activated,view,org.eclipse.jdt.ui,3.5.0.v20090604,"org.eclipse.jdt.ui.PackageExplorer",1332806292557
deactivated,workbench,org.eclipse.ui.workbench,3.5.0.I20090603-2000,"",1332806293354
activated,workbench,org.eclipse.ui.workbench,3.5.0.I20090603-2000,"",1332806294354
started,bundle,org.eclipse.jpt.core,2.2.0.v200906070220,"org.eclipse.jpt.core",1332806295588
started,bundle,org.eclipse.jpt.eclipselink.core,1.2.0.v200905310000,"org.eclipse.jpt.eclipselink.core",1332806295588
opened,editor,org.eclipse.jdt.ui,3.5.0.v20090604,"org.eclipse.jdt.ui.CompilationUnitEditor",1332806296041
activated,editor,org.eclipse.jdt.ui,3.5.0.v20090604,"org.eclipse.jdt.ui.CompilationUnitEditor",1332806296104
started,bundle,org.eclipse.debug.ui,3.5.0.v20090603,"org.eclipse.debug.ui",1332806299291
started,bundle,org.eclipse.wst.server.core,1.1.101.v20090515,"org.eclipse.wst.server.core",1332806299385
started,bundle,org.eclipse.wst.server.ui,1.1.102.v20090515,"org.eclipse.wst.server.ui",1332806299401
started,bundle,org.eclipse.jdt.debug,3.5.0.v20090526,"org.eclipse.jdt.debug",1332806299479
started,bundle,org.eclipse.jdt.debug.ui,3.4.0.v20090527,"org.eclipse.jdt.debug.ui",1332806299588
started,bundle,org.eclipse.cdt.core,5.1.0.200906161748,"org.eclipse.cdt.core",1332806299666
started,bundle,org.eclipse.cdt.debug.core,6.0.0.200906161748,"org.eclipse.cdt.debug.core",1332806299682
