what,kind,bundleId,bundleVersion,description,time
closed,editor,org.eclipse.jdt.ui,3.5.0.v20090604,"org.eclipse.jdt.ui.CompilationUnitEditor",1316567769792
activated,workbench,org.eclipse.ui.workbench,3.5.0.I20090603-2000,"",1316567769839
executed,command,org.eclipse.ui,3.5.0.I20090604-2000,"org.eclipse.ui.edit.delete",1316567769855
activated,editor,org.eclipse.jdt.ui,3.5.0.v20090604,"org.eclipse.jdt.ui.CompilationUnitEditor",1316567771339
activated,view,org.eclipse.jdt.ui,3.5.0.v20090604,"org.eclipse.jdt.ui.PackageExplorer",1316567771808
activated,editor,org.eclipse.jdt.ui,3.5.0.v20090604,"org.eclipse.jdt.ui.CompilationUnitEditor",1316567771980
activated,view,org.eclipse.jdt.ui,3.5.0.v20090604,"org.eclipse.jdt.ui.PackageExplorer",1316567773277
deactivated,workbench,org.eclipse.ui.workbench,3.5.0.I20090603-2000,"",1316567776433
started,bundle,org.eclipse.ant.ui,3.4.0.v20090520,"org.eclipse.ant.ui",1316567784527
closed,editor,org.eclipse.jdt.ui,3.5.0.v20090604,"org.eclipse.jdt.ui.CompilationUnitEditor",1316567785464
closed,editor,org.eclipse.jdt.ui,3.5.0.v20090604,"org.eclipse.jdt.ui.CompilationUnitEditor",1316567785511
error,log,,,"Internal Error",1316567785543
activated,workbench,org.eclipse.ui.workbench,3.5.0.I20090603-2000,"",1316567789933
executed,command,org.eclipse.jdt.ui,3.5.0.v20090604,"org.eclipse.jdt.ui.edit.text.java.rename.element",1316567789949
opened,editor,org.eclipse.jdt.ui,3.5.0.v20090604,"org.eclipse.jdt.ui.CompilationUnitEditor",1316567793152
activated,editor,org.eclipse.jdt.ui,3.5.0.v20090604,"org.eclipse.jdt.ui.CompilationUnitEditor",1316567793199
deactivated,workbench,org.eclipse.ui.workbench,3.5.0.I20090603-2000,"",1316567795668
activated,workbench,org.eclipse.ui.workbench,3.5.0.I20090603-2000,"",1316567796386
deactivated,workbench,org.eclipse.ui.workbench,3.5.0.I20090603-2000,"",1316567796527
activated,workbench,org.eclipse.ui.workbench,3.5.0.I20090603-2000,"",1316567800355
deactivated,workbench,org.eclipse.ui.workbench,3.5.0.I20090603-2000,"",1316567802746
activated,workbench,org.eclipse.ui.workbench,3.5.0.I20090603-2000,"",1316567815183
executed,command,org.eclipse.ui,3.5.0.I20090604-2000,"org.eclipse.ui.edit.delete",1316567826183
executed,command,org.eclipse.ui,3.5.0.I20090604-2000,"org.eclipse.ui.edit.delete",1316567826387
executed,command,org.eclipse.ui,3.5.0.I20090604-2000,"org.eclipse.ui.edit.delete",1316567826746
