what,kind,bundleId,bundleVersion,description,time
started,bundle,org.eclipse.wst.common.frameworks.ui,1.1.300.v200904160730,"org.eclipse.wst.common.frameworks.ui",1318292332066
started,bundle,org.eclipse.wst.xml.core,1.1.400.v200904300540,"org.eclipse.wst.xml.core",1318292332066
started,bundle,org.eclipse.wst.common.emfworkbench.integration,1.1.300.v200811200330,"org.eclipse.wst.common.emfworkbench.integration",1318292332098
started,bundle,org.eclipse.wst.common.modulecore,1.1.300.v200904132230,"org.eclipse.wst.common.modulecore",1318292332098
started,bundle,org.eclipse.wst.validation,1.2.102.v200905201610,"org.eclipse.wst.validation",1318292332113
started,bundle,org.eclipse.jst.j2ee,1.1.300.v200905290632,"org.eclipse.jst.j2ee",1318292332129
activated,editor,org.eclipse.jdt.ui,3.5.0.v20090604,"org.eclipse.jdt.ui.CompilationUnitEditor",1318292341817
activated,editor,org.eclipse.jdt.ui,3.5.0.v20090604,"org.eclipse.jdt.ui.CompilationUnitEditor",1318292359067
activated,editor,org.eclipse.jdt.ui,3.5.0.v20090604,"org.eclipse.jdt.ui.CompilationUnitEditor",1318292386599
executed,command,org.eclipse.ui,3.5.0.I20090604-2000,"org.eclipse.ui.edit.text.contentAssist.proposals",1318292403599
deactivated,workbench,org.eclipse.ui.workbench,3.5.0.I20090603-2000,"",1318292414162
activated,workbench,org.eclipse.ui.workbench,3.5.0.I20090603-2000,"",1318292448365
executed,command,org.eclipse.ui,3.5.0.I20090604-2000,"org.eclipse.ui.file.save",1318292455944
activated,view,org.eclipse.ui.console,3.4.0.v20090513,"org.eclipse.ui.console.ConsoleView",1318292460491
started,bundle,org.eclipse.wst.xsl.debug.ui,1.0.0.v200904240436,"org.eclipse.wst.xsl.debug.ui",1318292465928
activated,editor,org.eclipse.jdt.ui,3.5.0.v20090604,"org.eclipse.jdt.ui.CompilationUnitEditor",1318292479538
activated,editor,org.eclipse.jdt.ui,3.5.0.v20090604,"org.eclipse.jdt.ui.CompilationUnitEditor",1318292481038
activated,editor,org.eclipse.jdt.ui,3.5.0.v20090604,"org.eclipse.jdt.ui.CompilationUnitEditor",1318292482163
executed,command,org.eclipse.ui,3.5.0.I20090604-2000,"org.eclipse.ui.file.save",1318292488319
activated,editor,org.eclipse.jdt.ui,3.5.0.v20090604,"org.eclipse.jdt.ui.CompilationUnitEditor",1318292488460
executed,command,org.eclipse.ui,3.5.0.I20090604-2000,"org.eclipse.ui.file.save",1318292491491
activated,view,org.eclipse.ui.console,3.4.0.v20090513,"org.eclipse.ui.console.ConsoleView",1318292501523
activated,editor,org.eclipse.jdt.ui,3.5.0.v20090604,"org.eclipse.jdt.ui.CompilationUnitEditor",1318292503101
activated,editor,org.eclipse.jdt.ui,3.5.0.v20090604,"org.eclipse.jdt.ui.CompilationUnitEditor",1318292522320
activated,editor,org.eclipse.jdt.ui,3.5.0.v20090604,"org.eclipse.jdt.ui.CompilationUnitEditor",1318292522742
