what,kind,bundleId,bundleVersion,description,time
activated,workbench,org.eclipse.ui.workbench,3.5.0.I20090603-2000,"",1320105405316
activated,editor,org.eclipse.jdt.ui,3.5.0.v20090604,"org.eclipse.jdt.ui.CompilationUnitEditor",1320105406987
executed,command,org.eclipse.ui,3.5.0.I20090604-2000,"org.eclipse.ui.file.save",1320105409738
deactivated,workbench,org.eclipse.ui.workbench,3.5.0.I20090603-2000,"",1320105413394
activated,workbench,org.eclipse.ui.workbench,3.5.0.I20090603-2000,"",1320105418988
executed,command,org.eclipse.ui,3.5.0.I20090604-2000,"org.eclipse.ui.edit.text.contentAssist.proposals",1320105421910
deactivated,workbench,org.eclipse.ui.workbench,3.5.0.I20090603-2000,"",1320105427660
activated,workbench,org.eclipse.ui.workbench,3.5.0.I20090603-2000,"",1320105431160
deactivated,workbench,org.eclipse.ui.workbench,3.5.0.I20090603-2000,"",1320105439691
activated,workbench,org.eclipse.ui.workbench,3.5.0.I20090603-2000,"",1320105442192
deactivated,workbench,org.eclipse.ui.workbench,3.5.0.I20090603-2000,"",1320105451410
activated,workbench,org.eclipse.ui.workbench,3.5.0.I20090603-2000,"",1320105451489
executed,command,org.eclipse.ui,3.5.0.I20090604-2000,"org.eclipse.ui.edit.copy",1320105457176
executed,command,org.eclipse.ui,3.5.0.I20090604-2000,"org.eclipse.ui.edit.paste",1320105458864
executed,command,org.eclipse.ui,3.5.0.I20090604-2000,"org.eclipse.ui.file.save",1320105459301
activated,view,org.eclipse.ui.console,3.4.0.v20090513,"org.eclipse.ui.console.ConsoleView",1320105461848
deactivated,workbench,org.eclipse.ui.workbench,3.5.0.I20090603-2000,"",1320105463739
activated,workbench,org.eclipse.ui.workbench,3.5.0.I20090603-2000,"",1320105467786
activated,editor,org.eclipse.jdt.ui,3.5.0.v20090604,"org.eclipse.jdt.ui.CompilationUnitEditor",1320105469567
executed,command,org.eclipse.ui,3.5.0.I20090604-2000,"org.eclipse.ui.file.save",1320105472724
executed,command,org.eclipse.ui,3.5.0.I20090604-2000,"org.eclipse.ui.file.save",1320105475614
executed,command,org.eclipse.ui,3.5.0.I20090604-2000,"org.eclipse.ui.file.save",1320105482786
deactivated,workbench,org.eclipse.ui.workbench,3.5.0.I20090603-2000,"",1320105483099
activated,workbench,org.eclipse.ui.workbench,3.5.0.I20090603-2000,"",1320105485708
deactivated,workbench,org.eclipse.ui.workbench,3.5.0.I20090603-2000,"",1320105487427
