what,kind,bundleId,bundleVersion,description,time
activated,editor,org.eclipse.jdt.ui,3.5.0.v20090604,"org.eclipse.jdt.ui.CompilationUnitEditor",1323214196120
activated,view,org.eclipse.jdt.ui,3.5.0.v20090604,"org.eclipse.jdt.ui.PackageExplorer",1323214200370
executed,command,org.eclipse.jdt.debug.ui,3.4.0.v20090527,"org.eclipse.jdt.debug.ui.localJavaShortcut.run",1323214203651
executed,command,org.eclipse.jdt.debug.ui,3.4.0.v20090527,"org.eclipse.jdt.debug.ui.localJavaShortcut.run",1323214207323
deactivated,workbench,org.eclipse.ui.workbench,3.5.0.I20090603-2000,"",1323214207557
activated,workbench,org.eclipse.ui.workbench,3.5.0.I20090603-2000,"",1323214219198
activated,view,org.eclipse.ui.console,3.4.0.v20090513,"org.eclipse.ui.console.ConsoleView",1323214219198
deactivated,workbench,org.eclipse.ui.workbench,3.5.0.I20090603-2000,"",1323214221214
activated,workbench,org.eclipse.ui.workbench,3.5.0.I20090603-2000,"",1323214261089
activated,editor,org.eclipse.jdt.ui,3.5.0.v20090604,"org.eclipse.jdt.ui.CompilationUnitEditor",1323214261104
deactivated,workbench,org.eclipse.ui.workbench,3.5.0.I20090603-2000,"",1323214297776
activated,workbench,org.eclipse.ui.workbench,3.5.0.I20090603-2000,"",1323214310417
executed,command,org.eclipse.ui,3.5.0.I20090604-2000,"org.eclipse.ui.file.save",1323214311479
activated,view,org.eclipse.ui.console,3.4.0.v20090513,"org.eclipse.ui.console.ConsoleView",1323214314604
opened,editor,org.eclipse.jdt.ui,3.5.0.v20090604,"org.eclipse.jdt.ui.ClassFileEditor",1323214316839
activated,editor,org.eclipse.jdt.ui,3.5.0.v20090604,"org.eclipse.jdt.ui.ClassFileEditor",1323214316885
activated,editor,org.eclipse.jdt.ui,3.5.0.v20090604,"org.eclipse.jdt.ui.CompilationUnitEditor",1323214318839
closed,editor,org.eclipse.jdt.ui,3.5.0.v20090604,"org.eclipse.jdt.ui.ClassFileEditor",1323214318839
activated,editor,org.eclipse.jdt.ui,3.5.0.v20090604,"org.eclipse.jdt.ui.CompilationUnitEditor",1323214320604
activated,view,org.eclipse.ui.console,3.4.0.v20090513,"org.eclipse.ui.console.ConsoleView",1323214322229
activated,editor,org.eclipse.jdt.ui,3.5.0.v20090604,"org.eclipse.jdt.ui.CompilationUnitEditor",1323214323870
activated,editor,org.eclipse.jdt.ui,3.5.0.v20090604,"org.eclipse.jdt.ui.CompilationUnitEditor",1323214325495
deactivated,workbench,org.eclipse.ui.workbench,3.5.0.I20090603-2000,"",1323214326620
activated,workbench,org.eclipse.ui.workbench,3.5.0.I20090603-2000,"",1323214333620
activated,view,org.eclipse.ui.console,3.4.0.v20090513,"org.eclipse.ui.console.ConsoleView",1323214333635
