what,kind,bundleId,bundleVersion,description,time
closed,view,org.eclipse.ui.console,3.4.0.v20090513,"org.eclipse.ui.console.ConsoleView",1322522827507
activated,editor,org.eclipse.jdt.ui,3.5.0.v20090604,"org.eclipse.jdt.ui.CompilationUnitEditor",1322522828382
activated,editor,org.eclipse.jdt.ui,3.5.0.v20090604,"org.eclipse.jdt.ui.CompilationUnitEditor",1322522835461
activated,editor,org.eclipse.jdt.ui,3.5.0.v20090604,"org.eclipse.jdt.ui.CompilationUnitEditor",1322522839429
activated,view,org.eclipse.jdt.ui,3.5.0.v20090604,"org.eclipse.jdt.ui.PackageExplorer",1322522844664
opened,view,org.eclipse.ui.console,3.4.0.v20090513,"org.eclipse.ui.console.ConsoleView",1322522846429
activated,view,org.eclipse.ui.console,3.4.0.v20090513,"org.eclipse.ui.console.ConsoleView",1322522848429
activated,view,org.eclipse.jdt.ui,3.5.0.v20090604,"org.eclipse.jdt.ui.PackageExplorer",1322522851461
activated,view,org.eclipse.ui.console,3.4.0.v20090513,"org.eclipse.ui.console.ConsoleView",1322522856789
activated,view,org.eclipse.jdt.ui,3.5.0.v20090604,"org.eclipse.jdt.ui.PackageExplorer",1322522858164
executed,command,org.eclipse.jdt.debug.ui,3.4.0.v20090527,"org.eclipse.jdt.debug.ui.localJavaShortcut.run",1322522860054
activated,view,org.eclipse.ui.console,3.4.0.v20090513,"org.eclipse.ui.console.ConsoleView",1322522863820
activated,editor,org.eclipse.jdt.ui,3.5.0.v20090604,"org.eclipse.jdt.ui.CompilationUnitEditor",1322522878992
deactivated,workbench,org.eclipse.ui.workbench,3.5.0.I20090603-2000,"",1322522891101
activated,workbench,org.eclipse.ui.workbench,3.5.0.I20090603-2000,"",1322523384162
deactivated,workbench,org.eclipse.ui.workbench,3.5.0.I20090603-2000,"",1322523389068
activated,workbench,org.eclipse.ui.workbench,3.5.0.I20090603-2000,"",1322524244797
deactivated,workbench,org.eclipse.ui.workbench,3.5.0.I20090603-2000,"",1322524245281
activated,workbench,org.eclipse.ui.workbench,3.5.0.I20090603-2000,"",1322524246047
closed,workbench,org.eclipse.ui.workbench,3.5.0.I20090603-2000,"",1322524246156
stopped,bundle,ch.epfl.lamp.sdt.core,2.7.5.final,"ch.epfl.lamp.sdt.core",1322524246578
stopped,bundle,ch.epfl.lamp.sdt.aspects,2.7.5.final,"ch.epfl.lamp.sdt.aspects",1322524246578
stopped,bundle,org.eclipse.jst.ws.axis.creation.ui,1.0.406.v200903031852,"org.eclipse.jst.ws.axis.creation.ui",1322524246578
stopped,bundle,org.eclipse.jst.ws.axis.consumption.ui,1.0.405.v200901261650,"org.eclipse.jst.ws.axis.consumption.ui",1322524246578
stopped,bundle,org.eclipse.jst.ws.axis.consumption.core,1.0.306.v200810082309,"org.eclipse.jst.ws.axis.consumption.core",1322524246578
