what,kind,bundleId,bundleVersion,description,time
deactivated,workbench,org.eclipse.ui.workbench,3.5.0.I20090603-2000,"",1320104867667
activated,workbench,org.eclipse.ui.workbench,3.5.0.I20090603-2000,"",1320104874932
started,bundle,org.eclipse.compare.core,3.5.0.I20090430-0408,"org.eclipse.compare.core",1320104876542
opened,editor,org.eclipse.jdt.ui,3.5.0.v20090604,"org.eclipse.jdt.ui.CompilationUnitEditor",1320104876604
activated,editor,org.eclipse.jdt.ui,3.5.0.v20090604,"org.eclipse.jdt.ui.CompilationUnitEditor",1320104876761
started,bundle,org.eclipse.core.variables,3.2.200.v20090521,"org.eclipse.core.variables",1320104877026
started,bundle,org.eclipse.mylyn.java.ui,3.2.0.v20090617-0100-e3x,"org.eclipse.mylyn.java.ui",1320104879292
started,bundle,org.eclipse.pde.api.tools,1.0.100.v20090526,"org.eclipse.pde.api.tools",1320104879370
started,bundle,org.eclipse.pde.api.tools.ui,1.0.100.v20090526,"org.eclipse.pde.api.tools.ui",1320104879370
executed,command,org.eclipse.ui,3.5.0.I20090604-2000,"org.eclipse.ui.edit.text.contentAssist.proposals",1320104880136
started,bundle,org.eclipse.jdt.junit,3.5.0.v20090526-2000,"org.eclipse.jdt.junit",1320104880167
executed,command,org.eclipse.ui.workbench.texteditor,3.5.0.v20090603,"org.eclipse.ui.edit.text.goto.lineStart",1320104885886
executed,command,org.eclipse.ui.workbench.texteditor,3.5.0.v20090603,"org.eclipse.ui.edit.text.goto.lineEnd",1320104890730
executed,command,org.eclipse.ui,3.5.0.I20090604-2000,"org.eclipse.ui.edit.text.contentAssist.proposals",1320104916606
deactivated,workbench,org.eclipse.ui.workbench,3.5.0.I20090603-2000,"",1320104921418
activated,workbench,org.eclipse.ui.workbench,3.5.0.I20090603-2000,"",1320104930997
deactivated,workbench,org.eclipse.ui.workbench,3.5.0.I20090603-2000,"",1320104938731
activated,workbench,org.eclipse.ui.workbench,3.5.0.I20090603-2000,"",1320104958965
deactivated,workbench,org.eclipse.ui.workbench,3.5.0.I20090603-2000,"",1320104967059
activated,workbench,org.eclipse.ui.workbench,3.5.0.I20090603-2000,"",1320104969700
deactivated,workbench,org.eclipse.ui.workbench,3.5.0.I20090603-2000,"",1320104972278
activated,workbench,org.eclipse.ui.workbench,3.5.0.I20090603-2000,"",1320104975294
started,bundle,org.eclipse.compare,3.5.0.I20090514-0808,"org.eclipse.compare",1320104981903
executed,command,org.eclipse.ui.ide,3.5.0.I20090525-2000,"org.eclipse.jdt.ui.edit.text.java.correction.assist.proposals",1320104984013
started,bundle,org.eclipse.mylyn.java.tasks,3.2.0.v20090617-0100-e3x,"org.eclipse.mylyn.java.tasks",1320104984341
