what,kind,bundleId,bundleVersion,description,time
started,bundle,org.eclipse.wst.common.frameworks.ui,1.1.300.v200904160730,"org.eclipse.wst.common.frameworks.ui",1324548278123
started,bundle,org.eclipse.wst.xml.core,1.1.400.v200904300540,"org.eclipse.wst.xml.core",1324548278135
started,bundle,org.eclipse.wst.common.emfworkbench.integration,1.1.300.v200811200330,"org.eclipse.wst.common.emfworkbench.integration",1324548278195
started,bundle,org.eclipse.wst.common.modulecore,1.1.300.v200904132230,"org.eclipse.wst.common.modulecore",1324548278207
started,bundle,org.eclipse.wst.validation,1.2.102.v200905201610,"org.eclipse.wst.validation",1324548278219
started,bundle,org.eclipse.jst.j2ee,1.1.300.v200905290632,"org.eclipse.jst.j2ee",1324548278231
executed,command,org.eclipse.ui,3.5.0.I20090604-2000,"org.eclipse.ui.edit.text.contentAssist.proposals",1324548288636
executed,command,org.eclipse.ui,3.5.0.I20090604-2000,"org.eclipse.ui.edit.text.contentAssist.proposals",1324548292459
executed,command,org.eclipse.ui,3.5.0.I20090604-2000,"org.eclipse.ui.edit.text.contentAssist.proposals",1324548300674
executed,command,org.eclipse.ui,3.5.0.I20090604-2000,"org.eclipse.ui.edit.text.contentAssist.proposals",1324548306530
executed,command,org.eclipse.ui,3.5.0.I20090604-2000,"org.eclipse.ui.edit.text.contentAssist.proposals",1324548309216
executed,command,org.eclipse.ui,3.5.0.I20090604-2000,"org.eclipse.ui.file.save",1324548359343
started,bundle,org.eclipse.mylyn.java.tasks,3.2.0.v20090617-0100-e3x,"org.eclipse.mylyn.java.tasks",1324548404592
executed,command,org.eclipse.ui,3.5.0.I20090604-2000,"org.eclipse.ui.edit.cut",1324548404706
executed,command,org.eclipse.ui,3.5.0.I20090604-2000,"org.eclipse.ui.edit.paste",1324548405152
executed,command,org.eclipse.ui.workbench.texteditor,3.5.0.v20090603,"org.eclipse.ui.edit.text.goto.lineEnd",1324548417526
deactivated,workbench,org.eclipse.ui.workbench,3.5.0.I20090603-2000,"",1324548424115
activated,workbench,org.eclipse.ui.workbench,3.5.0.I20090603-2000,"",1324548425866
executed,command,org.eclipse.ui,3.5.0.I20090604-2000,"org.eclipse.ui.edit.text.contentAssist.proposals",1324548427460
executed,command,org.eclipse.ui,3.5.0.I20090604-2000,"org.eclipse.ui.edit.text.contentAssist.proposals",1324548457305
executed,command,org.eclipse.ui,3.5.0.I20090604-2000,"org.eclipse.ui.edit.text.contentAssist.proposals",1324548473139
deactivated,workbench,org.eclipse.ui.workbench,3.5.0.I20090603-2000,"",1324548507620
activated,workbench,org.eclipse.ui.workbench,3.5.0.I20090603-2000,"",1324548507706
deactivated,workbench,org.eclipse.ui.workbench,3.5.0.I20090603-2000,"",1324548527905
activated,workbench,org.eclipse.ui.workbench,3.5.0.I20090603-2000,"",1324548527991
