what,kind,bundleId,bundleVersion,description,time
executed,command,org.eclipse.ui,3.5.0.I20090604-2000,"org.eclipse.ui.file.save",1315270174536
deactivated,workbench,org.eclipse.ui.workbench,3.5.0.I20090603-2000,"",1315270174911
activated,workbench,org.eclipse.ui.workbench,3.5.0.I20090603-2000,"",1315270175457
executed,command,org.eclipse.ui,3.5.0.I20090604-2000,"org.eclipse.ui.edit.delete",1315270180064
executed,command,org.eclipse.ui,3.5.0.I20090604-2000,"org.eclipse.ui.edit.delete",1315270180298
executed,command,org.eclipse.ui,3.5.0.I20090604-2000,"org.eclipse.ui.edit.delete",1315270180610
executed,command,org.eclipse.ui,3.5.0.I20090604-2000,"org.eclipse.ui.edit.delete",1315270180891
executed,command,org.eclipse.ui,3.5.0.I20090604-2000,"org.eclipse.ui.edit.delete",1315270181422
executed,command,org.eclipse.ui,3.5.0.I20090604-2000,"org.eclipse.ui.edit.delete",1315270182250
executed,command,org.eclipse.ui,3.5.0.I20090604-2000,"org.eclipse.ui.file.save",1315270186606
deactivated,workbench,org.eclipse.ui.workbench,3.5.0.I20090603-2000,"",1315270186918
activated,workbench,org.eclipse.ui.workbench,3.5.0.I20090603-2000,"",1315270187387
deactivated,workbench,org.eclipse.ui.workbench,3.5.0.I20090603-2000,"",1315270193586
activated,workbench,org.eclipse.ui.workbench,3.5.0.I20090603-2000,"",1315270194882
deactivated,workbench,org.eclipse.ui.workbench,3.5.0.I20090603-2000,"",1315270195897
activated,workbench,org.eclipse.ui.workbench,3.5.0.I20090603-2000,"",1315270196162
executed,command,org.eclipse.ui,3.5.0.I20090604-2000,"org.eclipse.ui.file.save",1315270199222
deactivated,workbench,org.eclipse.ui.workbench,3.5.0.I20090603-2000,"",1315270199831
activated,workbench,org.eclipse.ui.workbench,3.5.0.I20090603-2000,"",1315270200347
deactivated,workbench,org.eclipse.ui.workbench,3.5.0.I20090603-2000,"",1315270202892
activated,workbench,org.eclipse.ui.workbench,3.5.0.I20090603-2000,"",1315270203032
deactivated,workbench,org.eclipse.ui.workbench,3.5.0.I20090603-2000,"",1315270203454
activated,workbench,org.eclipse.ui.workbench,3.5.0.I20090603-2000,"",1315270203626
deactivated,workbench,org.eclipse.ui.workbench,3.5.0.I20090603-2000,"",1315270204235
activated,workbench,org.eclipse.ui.workbench,3.5.0.I20090603-2000,"",1315270205577
