what,kind,bundleId,bundleVersion,description,time
activated,workbench,org.eclipse.ui.workbench,3.5.0.I20090603-2000,"",1317082151039
deactivated,workbench,org.eclipse.ui.workbench,3.5.0.I20090603-2000,"",1317082222195
activated,workbench,org.eclipse.ui.workbench,3.5.0.I20090603-2000,"",1317082244774
activated,view,org.eclipse.jdt.ui,3.5.0.v20090604,"org.eclipse.jdt.ui.PackageExplorer",1317082246320
started,bundle,org.eclipse.wst.ws.service.policy,1.0.103.v200905151848,"org.eclipse.wst.ws.service.policy",1317082246649
started,bundle,org.eclipse.wst.command.env,1.0.408.v200903110045,"org.eclipse.wst.command.env",1317082246664
started,bundle,org.eclipse.wst.ws,1.1.103.v200903111822,"org.eclipse.wst.ws",1317082246664
started,bundle,org.eclipse.compare,3.5.0.I20090514-0808,"org.eclipse.compare",1317082246899
executed,command,org.eclipse.ui.ide,3.5.0.I20090525-2000,"org.eclipse.ui.project.closeProject",1317082248758
closed,editor,org.eclipse.jdt.ui,3.5.0.v20090604,"org.eclipse.jdt.ui.CompilationUnitEditor",1317082249055
started,bundle,org.eclipse.wst.common.emf,1.1.300.v200905060430,"org.eclipse.wst.common.emf",1317082249086
started,bundle,org.eclipse.jst.j2ee.core,1.1.300.v200905060430,"org.eclipse.jst.j2ee.core",1317082249086
started,bundle,org.eclipse.jem,2.0.300.v200901272200,"org.eclipse.jem",1317082249086
started,bundle,org.eclipse.emf.ecore.xmi,2.5.0.v200906151043,"org.eclipse.emf.ecore.xmi",1317082249086
started,bundle,org.eclipse.jst.jee,1.0.200.v200905290632,"org.eclipse.jst.jee",1317082249164
started,bundle,org.eclipse.wst.sse.core,1.1.400.v200905141750,"org.eclipse.wst.sse.core",1317082249180
started,bundle,org.eclipse.wst.common.frameworks.ui,1.1.300.v200904160730,"org.eclipse.wst.common.frameworks.ui",1317082249180
started,bundle,org.eclipse.wst.xml.core,1.1.400.v200904300540,"org.eclipse.wst.xml.core",1317082249195
started,bundle,org.eclipse.wst.common.emfworkbench.integration,1.1.300.v200811200330,"org.eclipse.wst.common.emfworkbench.integration",1317082249227
started,bundle,org.eclipse.wst.common.modulecore,1.1.300.v200904132230,"org.eclipse.wst.common.modulecore",1317082249227
started,bundle,org.eclipse.wst.validation,1.2.102.v200905201610,"org.eclipse.wst.validation",1317082249227
started,bundle,org.eclipse.jst.j2ee,1.1.300.v200905290632,"org.eclipse.jst.j2ee",1317082249242
deactivated,workbench,org.eclipse.ui.workbench,3.5.0.I20090603-2000,"",1317082292352
activated,workbench,org.eclipse.ui.workbench,3.5.0.I20090603-2000,"",1317082294774
deactivated,workbench,org.eclipse.ui.workbench,3.5.0.I20090603-2000,"",1317082295399
