what,kind,bundleId,bundleVersion,description,time
activated,editor,org.eclipse.jdt.ui,3.5.0.v20090604,"org.eclipse.jdt.ui.CompilationUnitEditor",1317081988194
started,bundle,org.eclipse.jdt.apt.core,3.3.200.v20090528-1135,"org.eclipse.jdt.apt.core",1317081988834
started,bundle,org.eclipse.jdt.apt.pluggable.core,1.0.200.v20090526-2130,"org.eclipse.jdt.apt.pluggable.core",1317081988850
started,bundle,org.eclipse.core.variables,3.2.200.v20090521,"org.eclipse.core.variables",1317081988912
started,bundle,org.eclipse.mylyn.java.ui,3.2.0.v20090617-0100-e3x,"org.eclipse.mylyn.java.ui",1317082003756
started,bundle,org.eclipse.pde.api.tools,1.0.100.v20090526,"org.eclipse.pde.api.tools",1317082003834
started,bundle,org.eclipse.pde.api.tools.ui,1.0.100.v20090526,"org.eclipse.pde.api.tools.ui",1317082003834
started,bundle,org.eclipse.jdt.junit,3.5.0.v20090526-2000,"org.eclipse.jdt.junit",1317082004678
executed,command,org.eclipse.ui,3.5.0.I20090604-2000,"org.eclipse.ui.edit.text.contentAssist.proposals",1317082013788
executed,command,org.eclipse.ui,3.5.0.I20090604-2000,"org.eclipse.ui.file.save",1317082018272
started,bundle,org.eclipse.debug.ui,3.5.0.v20090603,"org.eclipse.debug.ui",1317082024366
started,bundle,org.eclipse.wst.server.core,1.1.101.v20090515,"org.eclipse.wst.server.core",1317082024772
started,bundle,org.eclipse.wst.server.ui,1.1.102.v20090515,"org.eclipse.wst.server.ui",1317082024788
started,bundle,org.eclipse.jdt.debug,3.5.0.v20090526,"org.eclipse.jdt.debug",1317082024819
started,bundle,org.eclipse.jdt.debug.ui,3.4.0.v20090527,"org.eclipse.jdt.debug.ui",1317082025288
started,bundle,org.eclipse.cdt.core,5.1.0.200906161748,"org.eclipse.cdt.core",1317082025366
started,bundle,org.eclipse.cdt.debug.core,6.0.0.200906161748,"org.eclipse.cdt.debug.core",1317082025381
started,bundle,org.eclipse.cdt.debug.ui,6.0.0.200906161748,"org.eclipse.cdt.debug.ui",1317082025381
deactivated,workbench,org.eclipse.ui.workbench,3.5.0.I20090603-2000,"",1317082025835
started,bundle,org.eclipse.cdt.debug.mi.ui,6.0.0.200906161748,"org.eclipse.cdt.debug.mi.ui",1317082026694
started,bundle,org.eclipse.cdt.debug.mi.core,6.0.0.200906161748,"org.eclipse.cdt.debug.mi.core",1317082026694
activated,workbench,org.eclipse.ui.workbench,3.5.0.I20090603-2000,"",1317082026725
deactivated,workbench,org.eclipse.ui.workbench,3.5.0.I20090603-2000,"",1317082028288
activated,workbench,org.eclipse.ui.workbench,3.5.0.I20090603-2000,"",1317082038569
deactivated,workbench,org.eclipse.ui.workbench,3.5.0.I20090603-2000,"",1317082113179
