what,kind,bundleId,bundleVersion,description,time
started,bundle,org.eclipse.ui.forms,3.4.0.v20090526,"org.eclipse.ui.forms",1320104814337
started,bundle,org.eclipse.team.cvs.ui,3.3.200.I20090521-1750,"org.eclipse.team.cvs.ui",1320104814555
started,bundle,org.eclipse.mylyn.tasks.ui,3.2.0.v20090617-0100-e3x,"org.eclipse.mylyn.tasks.ui",1320104814602
started,bundle,org.eclipse.mylyn.team.ui,3.2.0.v20090617-0100-e3x,"org.eclipse.mylyn.team.ui",1320104814602
started,bundle,org.eclipse.update.scheduler,3.2.200.v20081127,"org.eclipse.update.scheduler",1320104814602
started,bundle,org.eclipse.update.core,3.2.300.v20090525,"org.eclipse.update.core",1320104814618
started,bundle,org.eclipse.wst.ws.service.policy.ui,1.0.102.v200903070248,"org.eclipse.wst.ws.service.policy.ui",1320104814618
started,bundle,org.eclipse.mylyn.monitor.ui,3.2.0.v20090617-0100-e3x,"org.eclipse.mylyn.monitor.ui",1320104814696
started,bundle,org.eclipse.epp.usagedata.ui,1.1.0.R200906100410,"org.eclipse.epp.usagedata.ui",1320104816009
deactivated,workbench,org.eclipse.ui.workbench,3.5.0.I20090603-2000,"",1320104816384
activated,workbench,org.eclipse.ui.workbench,3.5.0.I20090603-2000,"",1320104817587
started,bundle,org.eclipse.debug.core,3.5.0.v20090526-1600,"org.eclipse.debug.core",1320104819618
started,bundle,org.eclipse.jdt.launching,3.5.0.v20090527,"org.eclipse.jdt.launching",1320104819618
deactivated,workbench,org.eclipse.ui.workbench,3.5.0.I20090603-2000,"",1320104820306
started,bundle,ch.epfl.lamp.sdt.aspects,2.7.5.final,"ch.epfl.lamp.sdt.aspects",1320104825103
started,bundle,org.eclipse.jst.common.project.facet.core,1.4.0.v200906080500,"org.eclipse.jst.common.project.facet.core",1320104825306
started,bundle,org.eclipse.jpt.core,2.2.0.v200906070220,"org.eclipse.jpt.core",1320104825337
started,bundle,org.eclipse.jpt.eclipselink.core,1.2.0.v200905310000,"org.eclipse.jpt.eclipselink.core",1320104825400
started,bundle,org.eclipse.ltk.core.refactoring,3.5.0.v20090513-2000,"org.eclipse.ltk.core.refactoring",1320104851322
started,bundle,org.eclipse.ltk.ui.refactoring,3.4.100.v20090604,"org.eclipse.ltk.ui.refactoring",1320104851322
activated,workbench,org.eclipse.ui.workbench,3.5.0.I20090603-2000,"",1320104853057
started,bundle,org.eclipse.jdt.apt.core,3.3.200.v20090528-1135,"org.eclipse.jdt.apt.core",1320104853135
started,bundle,org.eclipse.jdt.apt.pluggable.core,1.0.200.v20090526-2130,"org.eclipse.jdt.apt.pluggable.core",1320104853150
deactivated,workbench,org.eclipse.ui.workbench,3.5.0.I20090603-2000,"",1320104857276
activated,workbench,org.eclipse.ui.workbench,3.5.0.I20090603-2000,"",1320104861479
