what,kind,bundleId,bundleVersion,description,time
activated,workbench,org.eclipse.ui.workbench,3.5.0.I20090603-2000,"",1315873980088
executed,command,org.eclipse.ltk.ui.refactoring,3.4.100.v20090604,"org.eclipse.ltk.ui.refactoring.commands.deleteResources",1315873980448
executed,command,org.eclipse.ui,3.5.0.I20090604-2000,"org.eclipse.ui.edit.delete",1315873980448
deactivated,workbench,org.eclipse.ui.workbench,3.5.0.I20090603-2000,"",1315873982244
closed,editor,org.eclipse.jdt.ui,3.5.0.v20090604,"org.eclipse.jdt.ui.CompilationUnitEditor",1315873984901
activated,workbench,org.eclipse.ui.workbench,3.5.0.I20090603-2000,"",1315873984948
executed,command,org.eclipse.ltk.ui.refactoring,3.4.100.v20090604,"org.eclipse.ltk.ui.refactoring.commands.deleteResources",1315873984948
executed,command,org.eclipse.ui,3.5.0.I20090604-2000,"org.eclipse.ui.edit.delete",1315873984948
deactivated,workbench,org.eclipse.ui.workbench,3.5.0.I20090603-2000,"",1315873987135
activated,workbench,org.eclipse.ui.workbench,3.5.0.I20090603-2000,"",1315873993479
executed,command,org.eclipse.ui,3.5.0.I20090604-2000,"org.eclipse.ui.file.import",1315873993479
executed,command,org.eclipse.ui,3.5.0.I20090604-2000,"org.eclipse.ui.file.import",1315873993479
deactivated,workbench,org.eclipse.ui.workbench,3.5.0.I20090603-2000,"",1315873997729
activated,workbench,org.eclipse.ui.workbench,3.5.0.I20090603-2000,"",1315873999635
deactivated,workbench,org.eclipse.ui.workbench,3.5.0.I20090603-2000,"",1315873999916
activated,workbench,org.eclipse.ui.workbench,3.5.0.I20090603-2000,"",1315874000869
deactivated,workbench,org.eclipse.ui.workbench,3.5.0.I20090603-2000,"",1315874001698
activated,workbench,org.eclipse.ui.workbench,3.5.0.I20090603-2000,"",1315874002510
deactivated,workbench,org.eclipse.ui.workbench,3.5.0.I20090603-2000,"",1315874002854
activated,workbench,org.eclipse.ui.workbench,3.5.0.I20090603-2000,"",1315874008229
opened,editor,org.eclipse.jdt.ui,3.5.0.v20090604,"org.eclipse.jdt.ui.CompilationUnitEditor",1315874011885
activated,editor,org.eclipse.jdt.ui,3.5.0.v20090604,"org.eclipse.jdt.ui.CompilationUnitEditor",1315874011932
activated,view,org.eclipse.jdt.ui,3.5.0.v20090604,"org.eclipse.jdt.ui.PackageExplorer",1315874014776
deactivated,workbench,org.eclipse.ui.workbench,3.5.0.I20090603-2000,"",1315874016948
activated,workbench,org.eclipse.ui.workbench,3.5.0.I20090603-2000,"",1315874036057
