what,kind,bundleId,bundleVersion,description,time
activated,view,org.eclipse.ui.console,3.4.0.v20090513,"org.eclipse.ui.console.ConsoleView",1318292527711
activated,editor,org.eclipse.jdt.ui,3.5.0.v20090604,"org.eclipse.jdt.ui.CompilationUnitEditor",1318292531430
activated,editor,org.eclipse.jdt.ui,3.5.0.v20090604,"org.eclipse.jdt.ui.CompilationUnitEditor",1318292536680
activated,view,org.eclipse.ui.console,3.4.0.v20090513,"org.eclipse.ui.console.ConsoleView",1318292542914
activated,editor,org.eclipse.jdt.ui,3.5.0.v20090604,"org.eclipse.jdt.ui.CompilationUnitEditor",1318292545180
activated,editor,org.eclipse.jdt.ui,3.5.0.v20090604,"org.eclipse.jdt.ui.CompilationUnitEditor",1318292547617
executed,command,org.eclipse.ui,3.5.0.I20090604-2000,"org.eclipse.ui.edit.cut",1318292551305
executed,command,org.eclipse.ui,3.5.0.I20090604-2000,"org.eclipse.ui.file.save",1318292570884
deactivated,workbench,org.eclipse.ui.workbench,3.5.0.I20090603-2000,"",1318292603353
activated,workbench,org.eclipse.ui.workbench,3.5.0.I20090603-2000,"",1318292641167
deactivated,workbench,org.eclipse.ui.workbench,3.5.0.I20090603-2000,"",1318292644261
activated,workbench,org.eclipse.ui.workbench,3.5.0.I20090603-2000,"",1318292655120
deactivated,workbench,org.eclipse.ui.workbench,3.5.0.I20090603-2000,"",1318292669402
activated,workbench,org.eclipse.ui.workbench,3.5.0.I20090603-2000,"",1318292685745
activated,view,org.eclipse.ui.console,3.4.0.v20090513,"org.eclipse.ui.console.ConsoleView",1318292687011
activated,editor,org.eclipse.jdt.ui,3.5.0.v20090604,"org.eclipse.jdt.ui.CompilationUnitEditor",1318292716823
activated,editor,org.eclipse.jdt.ui,3.5.0.v20090604,"org.eclipse.jdt.ui.CompilationUnitEditor",1318292728760
executed,command,org.eclipse.ui,3.5.0.I20090604-2000,"org.eclipse.ui.file.save",1318292744744
activated,view,org.eclipse.ui.console,3.4.0.v20090513,"org.eclipse.ui.console.ConsoleView",1318292749447
deactivated,workbench,org.eclipse.ui.workbench,3.5.0.I20090603-2000,"",1318292802601
activated,workbench,org.eclipse.ui.workbench,3.5.0.I20090603-2000,"",1318292821132
deactivated,workbench,org.eclipse.ui.workbench,3.5.0.I20090603-2000,"",1318292841772
activated,workbench,org.eclipse.ui.workbench,3.5.0.I20090603-2000,"",1318292884817
activated,view,org.eclipse.jdt.ui,3.5.0.v20090604,"org.eclipse.jdt.ui.PackageExplorer",1318292886255
deactivated,workbench,org.eclipse.ui.workbench,3.5.0.I20090603-2000,"",1318292888223
