what,kind,bundleId,bundleVersion,description,time
activated,workbench,org.eclipse.ui.workbench,3.5.0.I20090603-2000,"",1314750784049
executed,command,org.eclipse.ui,3.5.0.I20090604-2000,"org.eclipse.ui.edit.text.contentAssist.proposals",1314750787939
executed,command,org.eclipse.ui.workbench.texteditor,3.5.0.v20090603,"org.eclipse.ui.edit.text.toggleOverwrite",1314750799033
executed,command,org.eclipse.ui.workbench.texteditor,3.5.0.v20090603,"org.eclipse.ui.edit.text.toggleOverwrite",1314750801501
executed,command,org.eclipse.ui,3.5.0.I20090604-2000,"org.eclipse.ui.edit.text.contentAssist.proposals",1314750804407
activated,editor,org.eclipse.jdt.ui,3.5.0.v20090604,"org.eclipse.jdt.ui.CompilationUnitEditor",1314750811173
activated,editor,org.eclipse.jdt.ui,3.5.0.v20090604,"org.eclipse.jdt.ui.CompilationUnitEditor",1314750812189
activated,editor,org.eclipse.jdt.ui,3.5.0.v20090604,"org.eclipse.jdt.ui.CompilationUnitEditor",1314750812845
executed,command,org.eclipse.ui,3.5.0.I20090604-2000,"org.eclipse.ui.edit.delete",1314750842375
executed,command,org.eclipse.ui,3.5.0.I20090604-2000,"org.eclipse.ui.edit.delete",1314750842719
executed,command,org.eclipse.ui,3.5.0.I20090604-2000,"org.eclipse.ui.edit.delete",1314750843203
executed,command,org.eclipse.ui,3.5.0.I20090604-2000,"org.eclipse.ui.edit.delete",1314750843235
executed,command,org.eclipse.ui,3.5.0.I20090604-2000,"org.eclipse.ui.edit.delete",1314750843266
executed,command,org.eclipse.ui,3.5.0.I20090604-2000,"org.eclipse.ui.edit.delete",1314750843297
executed,command,org.eclipse.ui,3.5.0.I20090604-2000,"org.eclipse.ui.edit.delete",1314750843328
executed,command,org.eclipse.ui,3.5.0.I20090604-2000,"org.eclipse.ui.edit.delete",1314750843375
executed,command,org.eclipse.ui,3.5.0.I20090604-2000,"org.eclipse.ui.edit.delete",1314750843547
executed,command,org.eclipse.ui,3.5.0.I20090604-2000,"org.eclipse.ui.file.save",1314750845235
activated,editor,org.eclipse.jdt.ui,3.5.0.v20090604,"org.eclipse.jdt.ui.CompilationUnitEditor",1314750846031
executed,command,org.eclipse.ui,3.5.0.I20090604-2000,"org.eclipse.ui.edit.text.contentAssist.proposals",1314750847875
deactivated,workbench,org.eclipse.ui.workbench,3.5.0.I20090603-2000,"",1314750849266
activated,workbench,org.eclipse.ui.workbench,3.5.0.I20090603-2000,"",1314750849406
executed,command,org.eclipse.ui,3.5.0.I20090604-2000,"org.eclipse.ui.edit.paste",1314750855156
executed,command,org.eclipse.ui,3.5.0.I20090604-2000,"org.eclipse.ui.edit.undo",1314750855922
executed,command,org.eclipse.ui,3.5.0.I20090604-2000,"org.eclipse.ui.edit.copy",1314750857406
