what,kind,bundleId,bundleVersion,description,time
activated,workbench,org.eclipse.ui.workbench,3.5.0.I20090603-2000,"",1314060718501
deactivated,workbench,org.eclipse.ui.workbench,3.5.0.I20090603-2000,"",1314060739689
activated,workbench,org.eclipse.ui.workbench,3.5.0.I20090603-2000,"",1314060739767
deactivated,workbench,org.eclipse.ui.workbench,3.5.0.I20090603-2000,"",1314060744314
activated,workbench,org.eclipse.ui.workbench,3.5.0.I20090603-2000,"",1314060744392
executed,command,org.eclipse.ui,3.5.0.I20090604-2000,"org.eclipse.ui.file.save",1314060749001
deactivated,workbench,org.eclipse.ui.workbench,3.5.0.I20090603-2000,"",1314060749486
activated,workbench,org.eclipse.ui.workbench,3.5.0.I20090603-2000,"",1314060750236
executed,command,org.eclipse.ui,3.5.0.I20090604-2000,"org.eclipse.ui.edit.text.contentAssist.proposals",1314060756939
executed,command,org.eclipse.ui,3.5.0.I20090604-2000,"org.eclipse.ui.edit.text.contentAssist.proposals",1314060759376
deactivated,workbench,org.eclipse.ui.workbench,3.5.0.I20090603-2000,"",1314060760580
activated,workbench,org.eclipse.ui.workbench,3.5.0.I20090603-2000,"",1314060760970
executed,command,org.eclipse.ui,3.5.0.I20090604-2000,"org.eclipse.ui.file.save",1314060776814
deactivated,workbench,org.eclipse.ui.workbench,3.5.0.I20090603-2000,"",1314060778533
activated,workbench,org.eclipse.ui.workbench,3.5.0.I20090603-2000,"",1314060781048
executed,command,org.eclipse.ui,3.5.0.I20090604-2000,"org.eclipse.ui.file.save",1314060814955
deactivated,workbench,org.eclipse.ui.workbench,3.5.0.I20090603-2000,"",1314060816158
activated,workbench,org.eclipse.ui.workbench,3.5.0.I20090603-2000,"",1314060818924
executed,command,org.eclipse.ui,3.5.0.I20090604-2000,"org.eclipse.ui.file.save",1314060833455
deactivated,workbench,org.eclipse.ui.workbench,3.5.0.I20090603-2000,"",1314060834658
activated,workbench,org.eclipse.ui.workbench,3.5.0.I20090603-2000,"",1314060853924
deactivated,workbench,org.eclipse.ui.workbench,3.5.0.I20090603-2000,"",1314060854752
activated,workbench,org.eclipse.ui.workbench,3.5.0.I20090603-2000,"",1314060860955
executed,command,org.eclipse.jdt.ui,3.5.0.v20090604,"org.eclipse.jdt.ui.edit.text.java.format",1314060874237
executed,command,org.eclipse.ui,3.5.0.I20090604-2000,"org.eclipse.ui.edit.text.contentAssist.proposals",1314060921127
