what,kind,bundleId,bundleVersion,description,time
executed,command,org.eclipse.ui,3.5.0.I20090604-2000,"org.eclipse.ui.file.save",1320105161232
started,bundle,org.eclipse.debug.ui,3.5.0.v20090603,"org.eclipse.debug.ui",1320105163123
started,bundle,org.eclipse.wst.server.core,1.1.101.v20090515,"org.eclipse.wst.server.core",1320105163576
started,bundle,org.eclipse.wst.server.ui,1.1.102.v20090515,"org.eclipse.wst.server.ui",1320105163592
started,bundle,org.eclipse.cdt.core,5.1.0.200906161748,"org.eclipse.cdt.core",1320105164170
started,bundle,org.eclipse.cdt.debug.core,6.0.0.200906161748,"org.eclipse.cdt.debug.core",1320105164186
started,bundle,org.eclipse.cdt.debug.ui,6.0.0.200906161748,"org.eclipse.cdt.debug.ui",1320105164186
started,bundle,org.eclipse.wst.common.emf,1.1.300.v200905060430,"org.eclipse.wst.common.emf",1320105164248
started,bundle,org.eclipse.jst.j2ee.core,1.1.300.v200905060430,"org.eclipse.jst.j2ee.core",1320105164248
started,bundle,org.eclipse.jem,2.0.300.v200901272200,"org.eclipse.jem",1320105164279
started,bundle,org.eclipse.emf.ecore.xmi,2.5.0.v200906151043,"org.eclipse.emf.ecore.xmi",1320105164279
started,bundle,org.eclipse.jst.jee,1.0.200.v200905290632,"org.eclipse.jst.jee",1320105164420
started,bundle,org.eclipse.wst.sse.core,1.1.400.v200905141750,"org.eclipse.wst.sse.core",1320105164451
started,bundle,org.eclipse.wst.common.frameworks.ui,1.1.300.v200904160730,"org.eclipse.wst.common.frameworks.ui",1320105164482
started,bundle,org.eclipse.wst.xml.core,1.1.400.v200904300540,"org.eclipse.wst.xml.core",1320105164498
started,bundle,org.eclipse.wst.common.emfworkbench.integration,1.1.300.v200811200330,"org.eclipse.wst.common.emfworkbench.integration",1320105164561
started,bundle,org.eclipse.wst.common.modulecore,1.1.300.v200904132230,"org.eclipse.wst.common.modulecore",1320105164561
started,bundle,org.eclipse.wst.validation,1.2.102.v200905201610,"org.eclipse.wst.validation",1320105164576
started,bundle,org.eclipse.jst.j2ee,1.1.300.v200905290632,"org.eclipse.jst.j2ee",1320105164607
started,bundle,org.eclipse.jdt.debug,3.5.0.v20090526,"org.eclipse.jdt.debug",1320105164779
started,bundle,org.eclipse.jdt.debug.ui,3.4.0.v20090527,"org.eclipse.jdt.debug.ui",1320105165389
deactivated,workbench,org.eclipse.ui.workbench,3.5.0.I20090603-2000,"",1320105165482
activated,workbench,org.eclipse.ui.workbench,3.5.0.I20090603-2000,"",1320105166654
deactivated,workbench,org.eclipse.ui.workbench,3.5.0.I20090603-2000,"",1320105166779
activated,workbench,org.eclipse.ui.workbench,3.5.0.I20090603-2000,"",1320105167920
