what,kind,bundleId,bundleVersion,description,time
started,bundle,org.eclipse.wst.server.ui,1.1.102.v20090515,"org.eclipse.wst.server.ui",1324548238815
started,bundle,org.eclipse.jdt.debug,3.5.0.v20090526,"org.eclipse.jdt.debug",1324548238899
started,bundle,org.eclipse.jdt.debug.ui,3.4.0.v20090527,"org.eclipse.jdt.debug.ui",1324548239044
started,bundle,org.eclipse.cdt.core,5.1.0.200906161748,"org.eclipse.cdt.core",1324548239214
started,bundle,org.eclipse.cdt.debug.core,6.0.0.200906161748,"org.eclipse.cdt.debug.core",1324548239601
started,bundle,org.eclipse.cdt.debug.ui,6.0.0.200906161748,"org.eclipse.cdt.debug.ui",1324548239625
started,bundle,org.eclipse.cdt.debug.mi.ui,6.0.0.200906161748,"org.eclipse.cdt.debug.mi.ui",1324548240496
started,bundle,org.eclipse.cdt.debug.mi.core,6.0.0.200906161748,"org.eclipse.cdt.debug.mi.core",1324548240533
deactivated,workbench,org.eclipse.ui.workbench,3.5.0.I20090603-2000,"",1324548241404
activated,workbench,org.eclipse.ui.workbench,3.5.0.I20090603-2000,"",1324548246098
started,bundle,org.eclipse.mylyn.java.ui,3.2.0.v20090617-0100-e3x,"org.eclipse.mylyn.java.ui",1324548259491
started,bundle,org.eclipse.pde.api.tools,1.0.100.v20090526,"org.eclipse.pde.api.tools",1324548259551
started,bundle,org.eclipse.pde.api.tools.ui,1.0.100.v20090526,"org.eclipse.pde.api.tools.ui",1324548259551
executed,command,org.eclipse.ui,3.5.0.I20090604-2000,"org.eclipse.ui.edit.text.contentAssist.proposals",1324548260023
executed,command,org.eclipse.ui,3.5.0.I20090604-2000,"org.eclipse.ui.edit.text.contentAssist.proposals",1324548264560
executed,command,org.eclipse.ui,3.5.0.I20090604-2000,"org.eclipse.ui.edit.text.contentAssist.proposals",1324548269956
executed,command,org.eclipse.ui.workbench.texteditor,3.5.0.v20090603,"org.eclipse.ui.edit.text.select.lineStart",1324548272690
executed,command,org.eclipse.ui,3.5.0.I20090604-2000,"org.eclipse.ui.edit.text.contentAssist.proposals",1324548274723
executed,command,org.eclipse.ui,3.5.0.I20090604-2000,"org.eclipse.ui.file.save",1324548277772
started,bundle,org.eclipse.wst.common.emf,1.1.300.v200905060430,"org.eclipse.wst.common.emf",1324548277941
started,bundle,org.eclipse.jst.j2ee.core,1.1.300.v200905060430,"org.eclipse.jst.j2ee.core",1324548277941
started,bundle,org.eclipse.jem,2.0.300.v200901272200,"org.eclipse.jem",1324548277965
started,bundle,org.eclipse.emf.ecore.xmi,2.5.0.v200906151043,"org.eclipse.emf.ecore.xmi",1324548277965
started,bundle,org.eclipse.jst.jee,1.0.200.v200905290632,"org.eclipse.jst.jee",1324548278086
started,bundle,org.eclipse.wst.sse.core,1.1.400.v200905141750,"org.eclipse.wst.sse.core",1324548278110
