what,kind,bundleId,bundleVersion,description,time
executed,command,org.eclipse.ui,3.5.0.I20090604-2000,"org.eclipse.ui.edit.text.contentAssist.proposals",1318292112500
executed,command,org.eclipse.ui,3.5.0.I20090604-2000,"org.eclipse.ui.file.save",1318292137923
activated,editor,org.eclipse.jdt.ui,3.5.0.v20090604,"org.eclipse.jdt.ui.CompilationUnitEditor",1318292141235
executed,command,org.eclipse.ui,3.5.0.I20090604-2000,"org.eclipse.ui.edit.delete",1318292161439
executed,command,org.eclipse.ui,3.5.0.I20090604-2000,"org.eclipse.ui.edit.text.contentAssist.proposals",1318292161954
executed,command,org.eclipse.ui,3.5.0.I20090604-2000,"org.eclipse.ui.edit.text.contentAssist.proposals",1318292168767
executed,command,org.eclipse.ui,3.5.0.I20090604-2000,"org.eclipse.ui.edit.text.contentAssist.proposals",1318292190001
executed,command,org.eclipse.ui,3.5.0.I20090604-2000,"org.eclipse.ui.edit.cut",1318292224392
executed,command,org.eclipse.ui,3.5.0.I20090604-2000,"org.eclipse.ui.edit.paste",1318292224721
executed,command,org.eclipse.ui,3.5.0.I20090604-2000,"org.eclipse.ui.file.save",1318292227689
activated,editor,org.eclipse.jdt.ui,3.5.0.v20090604,"org.eclipse.jdt.ui.CompilationUnitEditor",1318292235627
executed,command,org.eclipse.ui,3.5.0.I20090604-2000,"org.eclipse.ui.edit.text.contentAssist.proposals",1318292238658
deactivated,workbench,org.eclipse.ui.workbench,3.5.0.I20090603-2000,"",1318292246987
activated,workbench,org.eclipse.ui.workbench,3.5.0.I20090603-2000,"",1318292254487
deactivated,workbench,org.eclipse.ui.workbench,3.5.0.I20090603-2000,"",1318292258159
activated,workbench,org.eclipse.ui.workbench,3.5.0.I20090603-2000,"",1318292258362
executed,command,org.eclipse.ui,3.5.0.I20090604-2000,"org.eclipse.ui.edit.copy",1318292261237
executed,command,org.eclipse.ui,3.5.0.I20090604-2000,"org.eclipse.ui.edit.paste",1318292262721
executed,command,org.eclipse.ui,3.5.0.I20090604-2000,"org.eclipse.ui.edit.text.contentAssist.proposals",1318292266753
deactivated,workbench,org.eclipse.ui.workbench,3.5.0.I20090603-2000,"",1318292269737
activated,workbench,org.eclipse.ui.workbench,3.5.0.I20090603-2000,"",1318292270128
executed,command,org.eclipse.ui,3.5.0.I20090604-2000,"org.eclipse.ui.file.save",1318292273784
deactivated,workbench,org.eclipse.ui.workbench,3.5.0.I20090603-2000,"",1318292278784
activated,workbench,org.eclipse.ui.workbench,3.5.0.I20090603-2000,"",1318292278878
executed,command,org.eclipse.ui,3.5.0.I20090604-2000,"org.eclipse.ui.file.save",1318292280753
