what,kind,bundleId,bundleVersion,description,time
started,bundle,org.eclipse.equinox.weaving.aspectj,1.0.0.200902241436,"org.eclipse.equinox.weaving.aspectj",1332806250231
started,bundle,org.eclipse.help,3.4.0.v20090526,"org.eclipse.help",1332806250231
started,bundle,org.eclipse.jdt.apt.core,3.3.200.v20090528-1135,"org.eclipse.jdt.apt.core",1332806250231
started,bundle,org.eclipse.jdt.apt.pluggable.core,1.0.200.v20090526-2130,"org.eclipse.jdt.apt.pluggable.core",1332806250231
started,bundle,org.eclipse.jdt.core,3.5.0.v_963,"org.eclipse.jdt.core",1332806250231
started,bundle,org.eclipse.jdt.core.manipulation,1.3.0.v20090603,"org.eclipse.jdt.core.manipulation",1332806250231
started,bundle,org.eclipse.jdt.launching,3.5.0.v20090527,"org.eclipse.jdt.launching",1332806250231
started,bundle,org.eclipse.jdt.ui,3.5.0.v20090604,"org.eclipse.jdt.ui",1332806250231
started,bundle,org.eclipse.jem.util,2.0.200.v200905140200,"org.eclipse.jem.util",1332806250231
started,bundle,org.eclipse.jface,3.5.0.I20090525-2000,"org.eclipse.jface",1332806250231
started,bundle,org.eclipse.jsch.core,1.1.100.I20090430-0408,"org.eclipse.jsch.core",1332806250231
started,bundle,org.eclipse.jst.common.project.facet.core,1.4.0.v200906080500,"org.eclipse.jst.common.project.facet.core",1332806250231
started,bundle,org.eclipse.jst.jsf.common,1.1.5.v20090505,"org.eclipse.jst.jsf.common",1332806250231
started,bundle,org.eclipse.jst.jsf.core,1.2.0.v20090514,"org.eclipse.jst.jsf.core",1332806250231
started,bundle,org.eclipse.ltk.core.refactoring,3.5.0.v20090513-2000,"org.eclipse.ltk.core.refactoring",1332806250231
started,bundle,org.eclipse.ltk.ui.refactoring,3.4.100.v20090604,"org.eclipse.ltk.ui.refactoring",1332806250231
started,bundle,org.eclipse.mylyn.commons.net,3.2.0.v20090617-0100-e3x,"org.eclipse.mylyn.commons.net",1332806250231
started,bundle,org.eclipse.mylyn.commons.ui,3.2.0.v20090617-0100-e3x,"org.eclipse.mylyn.commons.ui",1332806250231
started,bundle,org.eclipse.mylyn.context.core,3.2.0.v20090617-0100-e3x,"org.eclipse.mylyn.context.core",1332806250231
started,bundle,org.eclipse.mylyn.context.ui,3.2.0.v20090617-0100-e3x,"org.eclipse.mylyn.context.ui",1332806250231
started,bundle,org.eclipse.pde.ui,3.5.0.v20090528,"org.eclipse.pde.ui",1332806250231
started,bundle,org.eclipse.team.core,3.5.0.I20090527-0620,"org.eclipse.team.core",1332806250231
started,bundle,org.eclipse.team.cvs.core,3.3.200.I20090430-0408,"org.eclipse.team.cvs.core",1332806250231
started,bundle,org.eclipse.team.ui,3.5.0.I20090430-0408,"org.eclipse.team.ui",1332806250231
started,bundle,org.eclipse.ui,3.5.0.I20090604-2000,"org.eclipse.ui",1332806250231
