what,kind,bundleId,bundleVersion,description,time
java.runtime.version,sysinfo,,,"1.6.0-b105",1322521558349
java.specification.name,sysinfo,,,"Java Platform API Specification",1322521558349
java.specification.vendor,sysinfo,,,"Sun Microsystems Inc.",1322521558349
java.specification.version,sysinfo,,,"1.6",1322521558349
java.vendor,sysinfo,,,"Sun Microsystems Inc.",1322521558349
java.version,sysinfo,,,"1.6.0",1322521558349
java.vm.info,sysinfo,,,"mixed mode",1322521558349
java.vm.name,sysinfo,,,"Java HotSpot(TM) Client VM",1322521558349
java.vm.specification.name,sysinfo,,,"Java Virtual Machine Specification",1322521558349
java.vm.specification.vendor,sysinfo,,,"Sun Microsystems Inc.",1322521558349
java.vm.specification.version,sysinfo,,,"1.0",1322521558349
java.vm.vendor,sysinfo,,,"Sun Microsystems Inc.",1322521558349
java.vm.version,sysinfo,,,"1.6.0-b105",1322521558349
started,bundle,org.eclipse.jdt.apt.core,3.3.200.v20090528-1135,"org.eclipse.jdt.apt.core",1322521558724
started,bundle,org.eclipse.jdt.apt.pluggable.core,1.0.200.v20090526-2130,"org.eclipse.jdt.apt.pluggable.core",1322521558740
started,bundle,org.eclipse.core.variables,3.2.200.v20090521,"org.eclipse.core.variables",1322521558912
started,bundle,org.eclipse.epp.usagedata.ui,1.1.0.R200906100410,"org.eclipse.epp.usagedata.ui",1322521560412
deactivated,workbench,org.eclipse.ui.workbench,3.5.0.I20090603-2000,"",1322521560803
activated,workbench,org.eclipse.ui.workbench,3.5.0.I20090603-2000,"",1322521566319
started,bundle,org.eclipse.ui.views.log,1.0.100.v20090527,"org.eclipse.ui.views.log",1322521567584
started,bundle,org.eclipse.pde.ui,3.5.0.v20090528,"org.eclipse.pde.ui",1322521567584
opened,view,org.eclipse.jdt.ui,3.5.0.v20090604,"org.eclipse.jdt.ui.PackageExplorer",1322521567694
opened,view,org.eclipse.ui.views,3.4.0.I20090525-2000,"org.eclipse.ui.views.ContentOutline",1322521567725
activated,editor,org.eclipse.jdt.ui,3.5.0.v20090604,"org.eclipse.jdt.ui.CompilationUnitEditor",1322521567787
activated,view,org.eclipse.jdt.ui,3.5.0.v20090604,"org.eclipse.jdt.ui.PackageExplorer",1322521569162
