what,kind,bundleId,bundleVersion,description,time
stopped,bundle,org.eclipse.jst.ws.axis2.ui,1.0.302.v200905260749,"org.eclipse.jst.ws.axis2.ui",1323217714784
stopped,bundle,org.eclipse.jst.ws.axis2.core,1.0.104.v200810151442,"org.eclipse.jst.ws.axis2.core",1323217714784
stopped,bundle,org.eclipse.jst.ws.creation.ui,1.0.408.v200904211646,"org.eclipse.jst.ws.creation.ui",1323217714784
stopped,bundle,org.eclipse.jst.ws.consumption.ui,1.1.104.v200904211646,"org.eclipse.jst.ws.consumption.ui",1323217714784
stopped,bundle,org.eclipse.jst.ws.consumption,1.0.407.v200905191120,"org.eclipse.jst.ws.consumption",1323217714784
stopped,bundle,org.eclipse.jst.ws.uddiregistry,1.0.400.v200901261650,"org.eclipse.jst.ws.uddiregistry",1323217714784
stopped,bundle,org.eclipse.jst.ws.ui,1.0.402.v200903111822,"org.eclipse.jst.ws.ui",1323217714784
stopped,bundle,org.eclipse.jst.ws,1.0.407.v200905191120,"org.eclipse.jst.ws",1323217714784
stopped,bundle,org.eclipse.wst.ws.explorer,1.0.407.v200903301628,"org.eclipse.wst.ws.explorer",1323217714784
stopped,bundle,org.eclipse.wst.wsdl.ui,1.2.202.v200904271449,"org.eclipse.wst.wsdl.ui",1323217714784
stopped,bundle,org.eclipse.wst.ws.ui,1.1.100.v200903112221,"org.eclipse.wst.ws.ui",1323217714784
stopped,bundle,org.eclipse.wst.wsi.ui,1.0.500.v200901141851,"org.eclipse.wst.wsi.ui",1323217714784
stopped,bundle,org.eclipse.wst.wsi,1.0.305.v200902181431,"org.eclipse.wst.wsi",1323217714784
stopped,bundle,org.eclipse.wst.ws,1.1.103.v200903111822,"org.eclipse.wst.ws",1323217714784
stopped,bundle,org.eclipse.jst.j2ee.webservice.ui,1.1.300.v200902052230,"org.eclipse.jst.j2ee.webservice.ui",1323217714784
stopped,bundle,org.eclipse.jst.j2ee.webservice,1.1.300.v200901220600,"org.eclipse.jst.j2ee.webservice",1323217714784
stopped,bundle,org.eclipse.wst.ws.parser,1.0.402.v200901220107,"org.eclipse.wst.ws.parser",1323217714784
stopped,bundle,commonj.sdo,2.1.1.v200905221342,"commonj.sdo",1323217714784
stopped,bundle,org.eclipse.datatools.enablement.oda.ws.ui,1.2.0.v200906111145,"org.eclipse.datatools.enablement.oda.ws.ui",1323217714784
stopped,bundle,org.eclipse.datatools.enablement.oda.ws,1.2.0.v200906020900,"org.eclipse.datatools.enablement.oda.ws",1323217714784
stopped,bundle,org.eclipse.wst.wsdl,1.2.0.v200904112052,"org.eclipse.wst.wsdl",1323217714784
stopped,bundle,org.eclipse.wst.wsdl.validation,1.1.401.v200902271605,"org.eclipse.wst.wsdl.validation",1323217714784
stopped,bundle,org.eclipse.wst.xsl.jaxp.debug.ui,1.0.0.v200904240436,"org.eclipse.wst.xsl.jaxp.debug.ui",1323217714784
stopped,bundle,org.eclipse.wst.xsl.ui,1.0.0.v200904300717,"org.eclipse.wst.xsl.ui",1323217714784
stopped,bundle,org.eclipse.wst.xml.xpath.ui,1.0.0.v200904240436,"org.eclipse.wst.xml.xpath.ui",1323217714784
