what,kind,bundleId,bundleVersion,description,time
started,bundle,org.eclipse.ui,3.5.0.I20090604-2000,"org.eclipse.ui",1316811547773
started,bundle,org.eclipse.ui.console,3.4.0.v20090513,"org.eclipse.ui.console",1316811547773
started,bundle,org.eclipse.ui.editors,3.5.0.v20090527-2000,"org.eclipse.ui.editors",1316811547773
started,bundle,org.eclipse.ui.ide,3.5.0.I20090525-2000,"org.eclipse.ui.ide",1316811547773
started,bundle,org.eclipse.ui.net,1.2.0.I20090430-0408,"org.eclipse.ui.net",1316811547773
started,bundle,org.eclipse.ui.views,3.4.0.I20090525-2000,"org.eclipse.ui.views",1316811547773
started,bundle,org.eclipse.ui.views.log,1.0.100.v20090527,"org.eclipse.ui.views.log",1316811547773
started,bundle,org.eclipse.ui.workbench,3.5.0.I20090603-2000,"org.eclipse.ui.workbench",1316811547773
started,bundle,org.eclipse.ui.workbench.texteditor,3.5.0.v20090603,"org.eclipse.ui.workbench.texteditor",1316811547773
started,bundle,org.eclipse.update.configurator,3.3.0.v20090312,"org.eclipse.update.configurator",1316811547773
started,bundle,org.eclipse.wst.common.frameworks,1.1.300.v200904160730,"org.eclipse.wst.common.frameworks",1316811547773
started,bundle,org.eclipse.wst.common.project.facet.core,1.4.0.v200906080535,"org.eclipse.wst.common.project.facet.core",1316811547773
started,bundle,org.eclipse.wst.web,1.1.300.v200901261500,"org.eclipse.wst.web",1316811547773
started,bundle,scala.library,2.7.5.final,"scala.library",1316811547773
os,sysinfo,,,"win32",1316811547773
arch,sysinfo,,,"x86",1316811547773
ws,sysinfo,,,"win32",1316811547773
locale,sysinfo,,,"pt_BR",1316811547773
processors,sysinfo,,,"2",1316811547773
java.runtime.name,sysinfo,,,"Java(TM) SE Runtime Environment",1316811547773
java.runtime.version,sysinfo,,,"1.6.0-b105",1316811547773
java.specification.name,sysinfo,,,"Java Platform API Specification",1316811547773
java.specification.vendor,sysinfo,,,"Sun Microsystems Inc.",1316811547773
java.specification.version,sysinfo,,,"1.6",1316811547773
java.vendor,sysinfo,,,"Sun Microsystems Inc.",1316811547773
