what,kind,bundleId,bundleVersion,description,time
activated,perspective,org.eclipse.jdt.ui,,"org.eclipse.jdt.ui.JavaPerspective",1315344491372
started,bundle,org.eclipse.osgi,3.5.0.v20090520,"org.eclipse.osgi",1315344491372
started,bundle,org.eclipse.equinox.simpleconfigurator,1.0.100.v20090520-1905,"org.eclipse.equinox.simpleconfigurator",1315344491372
started,bundle,ch.epfl.lamp.sdt.aspects,2.7.5.final,"ch.epfl.lamp.sdt.aspects",1315344491372
started,bundle,ch.epfl.lamp.sdt.core,2.7.5.final,"ch.epfl.lamp.sdt.core",1315344491372
started,bundle,com.ibm.icu,4.0.1.v20090415,"com.ibm.icu",1315344491372
started,bundle,org.eclipse.compare.core,3.5.0.I20090430-0408,"org.eclipse.compare.core",1315344491372
started,bundle,org.eclipse.contribution.weaving.jdt,1.6.4.20090313172428,"org.eclipse.contribution.weaving.jdt",1315344491372
started,bundle,org.eclipse.core.contenttype,3.4.0.v20090429-1800,"org.eclipse.core.contenttype",1315344491372
started,bundle,org.eclipse.core.databinding.observable,1.2.0.I20090604-2000,"org.eclipse.core.databinding.observable",1315344491372
started,bundle,org.eclipse.core.expressions,3.4.100.v20090429-1800,"org.eclipse.core.expressions",1315344491372
started,bundle,org.eclipse.core.filebuffers,3.5.0.v20090526-2000,"org.eclipse.core.filebuffers",1315344491372
started,bundle,org.eclipse.core.filesystem,1.2.0.v20090507,"org.eclipse.core.filesystem",1315344491372
started,bundle,org.eclipse.core.jobs,3.4.100.v20090429-1800,"org.eclipse.core.jobs",1315344491372
started,bundle,org.eclipse.core.net,1.2.0.I20090522-1010,"org.eclipse.core.net",1315344491372
started,bundle,org.eclipse.core.resources,3.5.0.v20090512,"org.eclipse.core.resources",1315344491372
started,bundle,org.eclipse.core.runtime,3.5.0.v20090525,"org.eclipse.core.runtime",1315344491372
started,bundle,org.eclipse.core.runtime.compatibility,3.2.0.v20090413,"org.eclipse.core.runtime.compatibility",1315344491372
started,bundle,org.eclipse.core.runtime.compatibility.auth,3.2.100.v20090413,"org.eclipse.core.runtime.compatibility.auth",1315344491372
started,bundle,org.eclipse.core.variables,3.2.200.v20090521,"org.eclipse.core.variables",1315344491372
started,bundle,org.eclipse.debug.core,3.5.0.v20090526-1600,"org.eclipse.debug.core",1315344491372
started,bundle,org.eclipse.ecf.filetransfer,3.0.0.v20090604-1131,"org.eclipse.ecf.filetransfer",1315344491372
started,bundle,org.eclipse.emf.common,2.5.0.v200906151043,"org.eclipse.emf.common",1315344491372
started,bundle,org.eclipse.emf.ecore,2.5.0.v200906151043,"org.eclipse.emf.ecore",1315344491372
started,bundle,org.eclipse.epp.usagedata.gathering,1.1.0.R200906100410,"org.eclipse.epp.usagedata.gathering",1315344491372
