what,kind,bundleId,bundleVersion,description,time
deactivated,workbench,org.eclipse.ui.workbench,3.5.0.I20090603-2000,"",1315873888338
activated,workbench,org.eclipse.ui.workbench,3.5.0.I20090603-2000,"",1315873889823
opened,editor,org.eclipse.jdt.ui,3.5.0.v20090604,"org.eclipse.jdt.ui.CompilationUnitEditor",1315873893479
activated,editor,org.eclipse.jdt.ui,3.5.0.v20090604,"org.eclipse.jdt.ui.CompilationUnitEditor",1315873893557
activated,view,org.eclipse.jdt.ui,3.5.0.v20090604,"org.eclipse.jdt.ui.PackageExplorer",1315873894557
opened,editor,org.eclipse.jdt.ui,3.5.0.v20090604,"org.eclipse.jdt.ui.CompilationUnitEditor",1315873899010
activated,editor,org.eclipse.jdt.ui,3.5.0.v20090604,"org.eclipse.jdt.ui.CompilationUnitEditor",1315873899057
activated,editor,org.eclipse.jdt.ui,3.5.0.v20090604,"org.eclipse.jdt.ui.CompilationUnitEditor",1315873934229
activated,editor,org.eclipse.jdt.ui,3.5.0.v20090604,"org.eclipse.jdt.ui.CompilationUnitEditor",1315873938119
deactivated,workbench,org.eclipse.ui.workbench,3.5.0.I20090603-2000,"",1315873939307
activated,workbench,org.eclipse.ui.workbench,3.5.0.I20090603-2000,"",1315873940244
activated,view,org.eclipse.ui.console,3.4.0.v20090513,"org.eclipse.ui.console.ConsoleView",1315873945604
deactivated,workbench,org.eclipse.ui.workbench,3.5.0.I20090603-2000,"",1315873947213
activated,workbench,org.eclipse.ui.workbench,3.5.0.I20090603-2000,"",1315873949541
executed,command,org.eclipse.ui,3.5.0.I20090604-2000,"org.eclipse.ui.file.save",1315873949541
activated,view,org.eclipse.jdt.ui,3.5.0.v20090604,"org.eclipse.jdt.ui.PackageExplorer",1315873951869
deactivated,workbench,org.eclipse.ui.workbench,3.5.0.I20090603-2000,"",1315873953229
activated,workbench,org.eclipse.ui.workbench,3.5.0.I20090603-2000,"",1315873962541
executed,command,org.eclipse.ui,3.5.0.I20090604-2000,"org.eclipse.ui.file.import",1315873962541
executed,command,org.eclipse.ui,3.5.0.I20090604-2000,"org.eclipse.ui.file.import",1315873962541
deactivated,workbench,org.eclipse.ui.workbench,3.5.0.I20090603-2000,"",1315873972057
started,bundle,org.eclipse.wst.jsdt.manipulation,1.0.100.v200809240707,"org.eclipse.wst.jsdt.manipulation",1315873976494
started,bundle,org.eclipse.wst.jsdt.ui,1.0.200.v200905242047,"org.eclipse.wst.jsdt.ui",1315873976541
error,log,,,"Internal Error",1315873976744
error,log,,,"Problems encountered while deleting resources.",1315873976744
