<?xml version="1.0" encoding="UTF-8"?>
<session version="1.0">
<refactoring comment="Rename Java project &apos;ProvaPrj&apos; to &apos;Prova01Prj&apos;&#x0D;&#x0A;- Original element: &apos;ProvaPrj&apos;&#x0D;&#x0A;- Renamed element: &apos;ProvaPrj&apos;&#x0D;&#x0A;- Update references to refactored element" description="Rename Java project &apos;ProvaPrj&apos;" flags="7" id="org.eclipse.jdt.ui.rename.java.project" input="=ProvaPrj" name="Prova01Prj" references="true" stamp="1334016134501" version="1.0"/>
</session>